Place,WeightClassKg,Sex,Division,Name,BirthYear,BodyweightKg,Country,Best3SquatKg,Best3BenchKg,Best3DeadliftKg,TotalKg,Event,Equipment
1,44,F,Open,Svetlana Tesleva,1975,43.9,Russia,145,80,152.5,377.5,SBD,Single-ply
2,44,F,Open,Anna-Liisa Prinkkala,1955,43.99,Finland,142.5,62.5,160,365,SBD,Single-ply
3,44,F,Open,Lien-Ju Chang,1975,42.7,Taiwan,135,70,150,355,SBD,Single-ply
4,44,F,Open,Junko Kitamura,1963,44,Japan,105,75,115,295,SBD,Single-ply
1,48,F,Open,Elena Yamskich,1974,47.8,Russia,145,87.5,170,402.5,SBD,Single-ply
2,48,F,Open,Raija Koskinen-Jurkko,1963,47.6,Finland,165,80,155,400,SBD,Single-ply
3,48,F,Open,Vuokko Viitasaari,1954,46.9,Finland,132.5,80,160,372.5,SBD,Single-ply
4,48,F,Open,Hsin-Yi Chou,1980,47.7,Taiwan,135,65,162.5,362.5,SBD,Single-ply
5,48,F,Open,Prabha-K.Surya,1972,47.66,India,137.5,50,150,337.5,SBD,Single-ply
6,48,F,Open,Heather Hampson,1966,47.6,UK,117.5,65,130,312.5,SBD,Single-ply
7,48,F,Open,Chandrika Dey,1976,44.5,India,110,52.5,110,272.5,SBD,Single-ply
1,52,F,Open,Oksana Belova,1975,51.8,Russia,170,102.5,185,457.5,SBD,Single-ply
2,52,F,Open,Li-Min Lin,1970,51.7,Taiwan,165,102.5,170,437.5,SBD,Single-ply
3,52,F,Open,Claudine Cognacq,1955,51.3,Denmark,160,82.5,180,422.5,SBD,Single-ply
4,52,F,Open,Nadezhda Mir,1970,52,Kazakhstan,152.5,95,175,422.5,SBD,Single-ply
5,52,F,Open,Chung-Chang Yuen,1979,51.68,USA,140,82.5,182.5,405,SBD,Single-ply
6,52,F,Open,Dagmar Wang,1948,51.5,Austria,137.5,87.5,160,385,SBD,Single-ply
7,52,F,Open,T. Molly,1968,51.9,India,150,65,160,375,SBD,Single-ply
8,52,F,Open,Yveline Dujardin,1966,51.4,Belgium,127.5,75,140,342.5,SBD,Single-ply
9,52,F,Open,Demeter Harvin,1964,51,USA,127.5,75,132.5,335,SBD,Single-ply
10,52,F,Open,Karen Lloyd,1961,51.9,Australia,112.5,72.5,145,330,SBD,Single-ply
1,56,F,Open,Carrie Boudreau,1967,54.9,USA,185,115.5,195,495,SBD,Single-ply
2,56,F,Open,Valentina Nelyubova,1966,55.8,Russia,175,115,170,460,SBD,Single-ply
3,56,F,Open,Ya-Ling Chen,1962,55.3,Taiwan,175,107.5,172.5,455,SBD,Single-ply
4,56,F,Open,Eva Engskar,1973,55.5,Norway,160,102.5,160,422.5,SBD,Single-ply
5,56,F,Open,Pirjo Savola,1968,55.5,Finland,157.5,75,180,412.5,SBD,Single-ply
6,56,F,Open,Sandra Szangolis,1970,54.9,Germany,147.5,75,160,382.5,SBD,Single-ply
7,56,F,Open,Adina Hyková,1943,55.9,Czechia,120,75,150,345,SBD,Single-ply
8,56,F,Open,Leanette Gevers,1962,55.6,Australia,125,67.5,150,342.5,SBD,Single-ply
9,56,F,Open,Sue Stephens,1968,55.5,USA,130,65,142.5,337.5,SBD,Single-ply
1,60,F,Open,Marina Kudinova,1978,59.66,Russia,207.5,115,200,522.5,SBD,Single-ply
2,60,F,Open,Ingeborg Marx,1970,59.99,Belgium,195,107.5,185,487.5,SBD,Single-ply
3,60,F,Open,Inger Blikra,1961,59.8,Norway,185,90,190,465,SBD,Single-ply
4,60,F,Open,Päivi Haapoja,1965,59.9,Finland,180,90,190,460,SBD,Single-ply
5,60,F,Open,Eriko Himeno,1964,59.3,Japan,157.5,107.5,190,455,SBD,Single-ply
6,60,F,Open,Ya-Ching Huang,1976,59,Taiwan,172.5,92.5,180,445,SBD,Single-ply
7,60,F,Open,Jess Kattan,1961,59.3,UK,152.5,85,180,417.5,SBD,Single-ply
8,60,F,Open,Ally Keizer,1951,60,Netherlands,152.5,70,170,392.5,SBD,Single-ply
1,67.5,F,Open,Lisa Sjöstrand,1966,67.3,Sweden,220,115,235,570,SBD,Single-ply
2,67.5,F,Open,Larysa Ivanova,1963,67.1,Ukraine,215,115,205,535,SBD,Single-ply
3,67.5,F,Open,Vali Isakandarova,1975,66.8,Kazakhstan,215,112.5,202.5,530,SBD,Single-ply
4,67.5,F,Open,Irene Frangi,1964,66.3,Argentina,200,105,205,510,SBD,Single-ply
5,67.5,F,Open,Carla Trospen,1961,66.4,USA,162.5,92.5,205,460,SBD,Single-ply
6,67.5,F,Open,Paula Housten,1961,67.3,USA,170,95,182.5,447.5,SBD,Single-ply
7,67.5,F,Open,Mariet Spronk,1955,67.2,Netherlands,147.5,92.5,185,425,SBD,Single-ply
8,67.5,F,Open,Shu-Chu Huang,1978,67.1,Taiwan,150,102.5,170,422.5,SBD,Single-ply
9,67.5,F,Open,Anne Mort,1957,65.7,Australia,162.5,90,165,417.5,SBD,Single-ply
10,67.5,F,Open,Bev Smith,1954,67.4,Australia,147.5,72.5,192.5,412.5,SBD,Single-ply
11,67.5,F,Open,Angela Hermanson,1979,66.5,Canada,147.5,82.5,130,360,SBD,Single-ply
1,75,F,Open,Marina Zhguleva,1975,74.3,Russia,225,142.5,212.5,580,SBD,Single-ply
2,75,F,Open,Anne Sigrid Stiklestad,1975,74.7,Norway,245,112.5,217.5,575,SBD,Single-ply
3,75,F,Open,Angela Martinez,1966,71.3,Argentina,190,115,210,515,SBD,Single-ply
4,75,F,Open,Anja Wiezkowiak,1975,70.9,Germany,200,102.5,207.5,510,SBD,Single-ply
5,75,F,Open,Hanna Divisova,1967,74.5,Czechia,190,97.5,197.5,485,SBD,Single-ply
6,75,F,Open,Gaby Fuchs,1963,74.2,Germany,182.5,105,190,477.5,SBD,Single-ply
7,75,F,Open,Karen Wilkinson,1971,73.2,Canada,160,102.5,192.5,455,SBD,Single-ply
8,75,F,Open,Joke van der Meulen,1951,71.2,Netherlands,155,82.5,165,402.5,SBD,Single-ply
9,75,F,Open,Mary Hetzel,1959,68.3,USA,145,85,160,390,SBD,Single-ply
1,82.5,F,Open,Natalya Rumyantseva,1971,82.2,Russia,215,151,232.5,598.5,SBD,Single-ply
2,82.5,F,Open,Doris Schumacher,1960,78.2,Germany,195,120,197.5,512.5,SBD,Single-ply
3,82.5,F,Open,Chia-Chi Lin,1973,80.8,Taiwan,200,117.5,190,507.5,SBD,Single-ply
4,82.5,F,Open,Hege Høiland,1959,76.8,Norway,187.5,112.5,195,495,SBD,Single-ply
5,82.5,F,Open,Julie Deakin,1965,81.4,Australia,167.5,75,200,442.5,SBD,Single-ply
6,82.5,F,Open,Chantal de Visser,1969,77.9,Netherlands,177.5,82.5,167.5,427.5,SBD,Single-ply
7,82.5,F,Open,Leann Cataldo,1972,78,USA,140,87.5,167.5,395,SBD,Single-ply
8,82.5,F,Open,D. Jyothi,1971,80.8,India,130,60,140,330,SBD,Single-ply
1,90,F,Open,Alla Korshunova,1968,87.4,Russia,222.5,122.5,242.5,587.5,SBD,Single-ply
2,90,F,Open,Shih-Hsien Ku,1973,89.2,Taiwan,212.5,125,195,532.5,SBD,Single-ply
3,90,F,Open,Tarja Rantanen,1957,86.6,Finland,170,135,197.5,502.5,SBD,Single-ply
4,90,F,Open,Sandra Smith-Vockroj,1962,85.2,UK,170,82.5,217.5,470,SBD,Single-ply
DQ,90,F,Open,Ruma Pal,1966,89.3,India,167.5,,,,SBD,Single-ply
1,90+,F,Open,Katrina Robertson,1960,124.1,Australia,247.5,137.5,262.5,647.5,SBD,Single-ply
2,90+,F,Open,Chen-Yeh Chao,1971,105.1,Taiwan,250,170,225,645,SBD,Single-ply
3,90+,F,Open,Chia-Sui Lee,1977,115.6,Taiwan,262.5,135,243,640,SBD,Single-ply
4,90+,F,Open,Ulla Herchenhein,1962,99.2,Germany,220,147.5,240,607.5,SBD,Single-ply
5,90+,F,Open,Juanita Trujillo,1964,116.8,USA,240,145,205,590,SBD,Single-ply
6,90+,F,Open,Anastasia Pavlova,1968,101.8,Russia,225,120,215,560,SBD,Single-ply
7,90+,F,Open,Jackie Pepper,1960,96.1,UK,165,95,190,450,SBD,Single-ply
8,90+,F,Open,Tandra Choudhury,1959,98.6,India,180,90,150,420,SBD,Single-ply
