Name,Place,Division,Sex,Equipment,State,WeightClassKg,BodyweightKg,Age,Best3SquatKg,Best3BenchKg,Best3DeadliftKg,Deadlift4Kg,TotalKg,Event
Tatiana Gallegos,1,Junior 16-17,F,Raw,CA,60,59.42,17,110.00,50.00,120.00,,280.00,SBD
Ciara Warner,1,Junior 16-17,F,Raw,CA,75,69.17,17,82.50,52.50,110.00,,245.00,SBD
Monique LeMay,1,Open,F,Raw,CA,52,51.26,43,92.50,60.00,112.50,,265.00,SBD
Niki Chacon,1,Open,F,Raw,CA,56,55.11,29,62.50,47.50,112.50,,222.50,SBD
Tatiana Gallegos,1,Open,F,Raw,CA,60,59.42,17,110.00,50.00,120.00,,280.00,SBD
Nita Horton,1,Open,F,Raw,CA,67.5,66.22,30,87.50,52.50,127.50,,267.50,SBD
Casey Bergh,DQ,Open,F,Raw,CA,75,73.03,25,115.00,-57.50,102.50,,,SBD
Michele Russell,1,Open,F,Raw,CA,82.5,80.51,35,117.50,67.50,142.50,,327.50,SBD
Monique LeMay,1,Master 40-44,F,Raw,CA,52,51.26,43,92.50,60.00,112.50,,265.00,SBD
Greg Arnold,1,Junior 13-15,M,Raw,CA,56,54.88,15,95.00,67.51,118.00,,280.51,SBD
Travis Tanita,1,Junior 18-19,M,Raw,CA,67.5,63.73,18,92.50,85.00,137.50,,315.00,SBD
Julian Lin,1,Junior 20-23,M,Raw,CA,67.5,66.68,21,142.50,92.50,160.00,,395.00,SBD
Barry He,1,Junior 20-23,M,Raw,CA,75,74.16,20,182.50,107.50,225.00,,515.00,SBD
Nick Ramsey,2,Junior 20-23,M,Raw,CA,75,74.62,23,180.00,115.00,205.00,,500.00,SBD
Kent Tanita,3,Junior 20-23,M,Raw,CA,75,72.12,20,112.50,77.50,132.50,,322.50,SBD
Stephen Yip,1,Junior 16-17,M,Raw,CA,82.5,76.43,16,112.50,72.50,135.00,,320.00,SBD
Kevin Tanita,1,Junior 20-23,M,Raw,CA,82.5,79.83,22,187.50,137.50,197.50,,522.50,SBD
Daniel Romero,1,Junior 20-23,M,Raw,CA,90,89.81,22,182.50,110.00,215.00,,507.50,SBD
Mason Merilles,1,Junior 18-19,M,Raw,CA,110,108.86,18,237.50,150.00,273.00,,660.50,SBD
Rey Hernandez,1,Junior 20-23,M,Raw,CA,110,103.65,23,167.50,115.00,220.00,,502.50,SBD
Jo Armas,1,Open,M,Raw,CA,67.5,66.22,26,175.00,120.00,225.00,,520.00,SBD
Nick Morgan,1,Open,M,Raw,CA,82.5,81.42,30,147.50,105.00,177.50,,430.00,SBD
Matthew Council,1,Open,M,Raw,CA,90,89.13,26,227.50,142.50,240.00,,610.00,SBD
Andrew Hanus,2,Open,M,Raw,CA,90,88.45,26,235.00,142.50,225.00,,602.50,SBD
Gary Loyd,1,Open,M,Raw,CA,90,87.32,46,142.50,137.50,160.00,,440.00,SBD
David Murphy,1,Open,M,Raw,CA,100,99.56,40,195.00,155.00,192.50,,542.50,SBD
Allan Maglinte Jr,2,Open,M,Raw,CA,100,96.62,27,165.00,125.00,215.00,,505.00,SBD
Varun Taneja,1,Open,M,Raw,CA,110,103.42,34,227.50,147.50,272.50,,647.50,SBD
Marty Gothard,1,Master 65-69,M,Raw,CA,82.5,79.61,66,115.00,77.50,157.50,162.5,350.00,SBD
Gary Loyd,1,Master 45-49,M,Raw,CA,90,87.32,46,142.50,137.50,160.00,,440.00,SBD
David Beaulieu Class,1,Master 55-59,M,Raw,CA,90,88.45,56,160.00,105.00,193.00,,458.00,SBD
Michael Placeres,2,Master 55-59,M,Raw,CA,90,88.68,56,142.50,82.50,187.50,,412.50,SBD
Timothy Anderson,1,Master 60-64,M,Raw,CA,90,88.68,60,140.00,122.50,217.50,,480.00,SBD
David Murphy,1,Master 40-44,M,Raw,CA,100,99.56,40,195.00,155.00,192.50,,542.50,SBD
Jeny Francisco,1,Open,F,Wraps,CA,75,73.48,29,107.50,55.00,132.50,,295.00,SBD
Sammi Jo Johnson,1,Open,F,Wraps,CA,90,89.13,27,142.50,85.00,170.00,,397.50,SBD
Brandon Leboudour,1,Junior 18-19,M,Wraps,CA,100,98.88,18,172.50,148.00,215.00,,535.50,SBD
Dan Holmes,1,Submaster 35-39,M,Wraps,CA,140+,150.59,37,295.00,182.50,317.50,,795.00,SBD
Jeff Armstrong,1,Master 40-44,M,Wraps,CA,110,109.77,41,238.00,145.00,262.50,,645.50,SBD
Joe Dentice,1,Master 55-59,M,Wraps,NV,110,109.77,55,200.00,157.50,230.00,,587.50,SBD
Tim Crutchley,1,Master 55-59,M,Wraps,CA,140,136.53,59,245.00,155.00,227.50,,627.50,SBD
Bettina Lutman,1,Submaster 35-39,F,Raw,CA,67.5,65.32,38,,65.00,,,65.00,B
Jordan De Avila,1,Junior 13-15,M,Raw,CA,52,47.63,14,,45.00,,,45.00,B
Brandon Della Maggiora,1,Junior 20-23,M,Raw,CA,67.5,66.90,20,,122.50,,,122.50,B
Austin Dorer,1,Junior 18-19,M,Raw,CA,110,103.65,19,,162.50,,,162.50,B
Chris Lewis,DQ,Open,M,Raw,CA,90,89.81,31,,-152.50,,,,B
Tom Kosanouvong,1,Open,M,Raw,CA,110,105.01,34,,192.50,,,192.50,B
Joseph Rodrigues,1,Submaster 35-39,M,Raw,CA,75,74.39,35,,140.00,,,140.00,B
Daniel Melgoza,DQ,Submaster 35-39,M,Raw,CA,90,86.41,38,,-148.00,,,,B
Michael Russell,1,Master 55-59,M,Raw,CA,67.5,61.92,58,,90.50,,,90.50,B
Jeff Hunter,1,Master 50-54,M,Raw,CA,125,110.90,54,,182.50,,,182.50,B
Pat Monahan,1,Master 55-59,M,Raw,CA,125,119.98,56,,185.00,,,185.00,B
Daniel Hudson,1,Master 65-69,M,Single-ply,CA,100,93.67,65,,152.50,,,152.50,B
Nita Horton,1,Open,F,Raw,CA,67.5,66.22,30,,,127.50,,127.50,D
Brandon Della Maggoira,1,Junior 20-23,M,Raw,CA,67.5,66.90,20,,,152.50,,152.50,D
Chris Lewis,1,Open,M,Raw,CA,90,89.81,31,,,210.00,,210.00,D
Daniel Melgoza,1,Submaster 35-39,M,Raw,CA,90,86.41,38,,,207.50,,207.50,D
Joe Dentice,1,Master 55-59,M,Raw,NV,110,109.77,55,,,230.00,,230.00,D
