Name,Place,Division,Sex,Equipment,Event,WeightClassKg,BodyweightKg,Age,Best3SquatKg,Squat4Kg,Best3BenchKg,Bench4Kg,Best3DeadliftKg,Deadlift4Kg,TotalKg
Kim Tran #1,1,Open,F,Raw,SBD,44,43.27,23,87.5,,55,,112.5,,255
Julie Diss,1,Open,F,Raw,SBD,60,59.87,28,127.5,,80,,175,,382.5
Nicole Crapotta,1,Open,F,Raw,SBD,67.5,63.5,25,115,,65,,160,,340
Jonah Cartwright,1,Junior 13-15,M,Raw,SBD,60,58.06,14,107.5,,65,,122.5,127.5,295
Dustin Hoang,1,Junior 20-23,M,Raw,SBD,82.5,80.83,23,197.5,,112.5,,255,,565
Zachary Trahan,2,Junior 20-23,M,Raw,SBD,82.5,80.56,23,195,,105,,255,,555
Alex Young,1,Junior 20-23,M,Raw,SBD,90,89.36,23,185,,125,,262.5,,572.5
David Blonski,1,Open,M,Raw,SBD,90,89.36,27,220,,152.5,,297.5,,670
Yasin Ait,2,Open,M,Raw,SBD,90,88.18,25,200,,135,,260,,595
Michael Eagle,3,Open,M,Raw,SBD,90,84.82,19,137.5,,112.5,,182.5,,432.5
Dennis Cannataro,4,Open,M,Raw,SBD,90,88.36,54,142.5,,132.5,,155,,430
Dennis Cannataro,1,Master 50-54,M,Raw,SBD,90,88.36,54,142.5,,132.5,,155,,430
Greg Harper,1,Master 60-64,M,Raw,SBD,90,83.28,62,110,,70,,152.5,,332.5
Jimmy Doyle,DQ,Junior 20-23,M,Raw,SBD,100,99.43,23,-240,,140,,,,
Jarett Borges,DQ,Junior 20-23,M,Raw,SBD,100,99.79,23,-215,,155,,,,
Ezekiel O'Brien,1,Submaster 35-39,M,Raw,SBD,100,96.89,37,170,,117.5,,160,,447.5
Johnny Armstrong,1,Junior 16-17,M,Raw,SBD,110,110,16,185,190,145.5,147.5,197.5,,528
Jerry Tremblay,1,Master 45-49,M,Raw,SBD,110,106.96,49,242.5,,160,,255,,657.5
Jim Doyle,DQ,Master 60-64,M,Raw,SBD,110,106.96,62,-112.5,,127.5,,155,,
Riccardo Magni,DQ,Open,M,Raw,SBD,125,122.38,37,75,,155,,-75,,
Savanah McCoy,1,Junior 18-19,F,Wraps,SBD,56,55.88,19,110,,60,,107.5,,277.5
Meghan Froley,1,Open,F,Wraps,SBD,75,73.3,30,157.5,,87.5,,165,,410
Allyson Eddleman,DQ,Open,F,Wraps,SBD,82.5,79.65,26,70,,-47.5,,120,,
Christian Ampania,1,Junior 20-23,M,Wraps,SBD,75,74.93,23,232.5,,127.5,,232.5,,592.5
David Benjamin,1,Open,M,Wraps,SBD,90,87.72,25,265,,187.5,,265,,717.5
Michael Maslanik,1,Open,M,Wraps,SBD,100,98.43,30,275,,195,,275,,745
Ronald A. Sims,1,Master 40-44,M,Wraps,SBD,100,98.43,41,170,,127.5,,270,,567.5
Rubin Thomas,1,Open,M,Wraps,SBD,140,133.9,34,240,,170,,280,,690
Georgiann Puckett,1,Open,F,Single-ply,SBD,60,59.42,47,137.5,,87.5,,117.5,,342.5
Georgiann Puckett,1,Master 45-49,F,Single-ply,SBD,60,59.42,47,137.5,,87.5,,117.5,,342.5
Sylvia Nix,1,Open,F,Single-ply,SBD,67.5,66.59,42,152.5,,75,,157.5,160,385
Sylvia Nix,1,Master 40-44,F,Single-ply,SBD,67.5,66.59,42,152.5,,75,,157.5,160,385
Douglas Tice,DQ,Open,M,Single-ply,SBD,90,89.54,28,250,,,,,,
Brian Pacheco,DQ,Open,M,Single-ply,SBD,90,87.45,40,257.5,,,,,,
