Event,Equipment,WeightClassKg,Sex,Name,CyrillicName,BirthDay,BirthYear,Division,BodyweightKg,Squat1Kg,Squat2Kg,Squat3Kg,Squat4Kg,Best3SquatKg,Bench1Kg,Bench2Kg,Bench3Kg,Bench4Kg,Best3BenchKg,Deadlift1Kg,Deadlift2Kg,Deadlift3Kg,Deadlift4Kg,Best3DeadliftKg,TotalKg,Place
B,Multi-ply,60,F,Kseniya Shershen,Ксения Шершень,,1985,Amateur Open,59.1,,,,,,-70,70,-75,,70,,,,,,70,1
B,Multi-ply,67.5,F,Irina Adamyants,Ирина Адамянц,1976-03-08,,Amateur Open,64.3,,,,,,-100,-100,-100,,,,,,,,,DQ
B,Multi-ply,75,F,Vasilina Avdeenko,Василина Авдеенко,1983-08-19,,Amateur Open,67.9,,,,,,60,-70,-70,,60,,,,,,60,1
B,Multi-ply,82.5,F,Oksana Udovenko,Оксана Удовенко,1991-10-21,,Amateur 20-23,80.3,,,,,,95,-107.5,-107.5,,95,,,,,,95,1
B,Multi-ply,90,F,Larisa Semyonova,Лариса Семёнова,1962-01-31,,Amateur Open,86.6,,,,,,100,107.5,112.5,,112.5,,,,,,112.5,1
B,Multi-ply,52,M,Kaplan Skhalyakho,Каплан Схаляхо,1990-08-28,,Amateur 20-23,51.9,,,,,,100,110,115,-117.5,115,,,,,,115,1
B,Multi-ply,52,M,Kaplan Skhalyakho,Каплан Схаляхо,1990-08-28,,Amateur Open,51.9,,,,,,100,110,115,-117.5,115,,,,,,115,1
B,Multi-ply,56,M,Boris Anferov,Борис Анферов,1983-07-19,,Amateur Open,55.9,,,,,,120,-130,-130,,120,,,,,,120,1
B,Multi-ply,67.5,M,Stanislav Shuvalov,Станислав Шувалов,1989-07-15,,Amateur 20-23,63.4,,,,,,110,-120,120,,120,,,,,,120,1
B,Multi-ply,67.5,M,Dmitriy Matosyan,Дмитрий Матосян,1976-04-02,,Amateur Open,66.1,,,,,,155,-165,-170,,155,,,,,,155,1
B,Multi-ply,75,M,Salavat Masyagutov,Салават Масягутов,1991-07-17,,Amateur 20-23,74.3,,,,,,-180,180,185,-201,185,,,,,,185,2
B,Multi-ply,75,M,Ramin Rzaev,Рамин Рзаев,1980-07-24,,Amateur Open,73,,,,,,-190,190,-197.5,,190,,,,,,190,1
B,Multi-ply,75,M,Salavat Masyagutov,Салават Масягутов,1991-07-17,,Amateur Open,74.3,,,,,,-180,180,185,-201,185,,,,,,185,2
B,Multi-ply,75,M,Armen Khachaturyan,Армен Хачатурян,1978-07-18,,Amateur Open,74.1,,,,,,-175,-175,-175,,,,,,,,,DQ
B,Multi-ply,75,M,Nikolay Kravchenko,Николай Кравченко,1985-10-06,,Amateur Open,73.8,,,,,,-182.5,-182.5,-182.5,,,,,,,,,DQ
B,Multi-ply,75,M,Andrey Veselov,Андрей Веселов,1975-11-11,,Amateur Open,74.6,,,,,,-175,-180,-182.5,,,,,,,,,DQ
B,Multi-ply,82.5,M,Dmitriy Rastorguev,Дмитрий Расторгуев,1993-12-18,,Amateur 18-19,80.4,,,,,,160,170,175,,175,,,,,,175,1
B,Multi-ply,82.5,M,Viktor Mistratov,Виктор Мистратов,1981-02-10,,Amateur Open,82.4,,,,,,220,230,237.5,242.5,237.5,,,,,,237.5,2
B,Multi-ply,82.5,M,Oleg Kesaev,Олег Кесаев,1987-09-04,,Amateur Open,81.2,,,,,,195,210,220,,220,,,,,,220,3
B,Multi-ply,82.5,M,Stanislav Pryakhin,Станислав Пряхин,1975-03-18,,Amateur Open,82.5,,,,,,200,-210,-220,,200,,,,,,200,4
B,Multi-ply,82.5,M,Rishat Fattakhov,Ришат Фаттахов,1967-05-08,,Amateur 40-49,82.5,,,,,,-165,170,195,,195,,,,,,195,2
B,Multi-ply,82.5,M,Mikhail Zolotukhin,Михаил Золотухин,1962-10-20,,Amateur 40-49,81.8,,,,,,107.5,112.5,-117.5,,112.5,,,,,,112.5,3
B,Multi-ply,90,M,Namik Dzhafarov,Намик Джафаров,1976-08-27,,Amateur Open,89.7,,,,,,220,230,240,-245,240,,,,,,240,1
B,Multi-ply,90,M,Namig Nuruev,Намиг Нуруев,1986-06-15,,Amateur Open,89,,,,,,-205,205,-210,,205,,,,,,205,4
B,Multi-ply,90,M,Sergey Vinnichenko,Сергей Винниченко,1974-12-04,,Amateur Open,86.3,,,,,,180,-200,-205,,180,,,,,,180,6
B,Multi-ply,90,M,Sergey Talalaev,Сергей Талалаев,1968-09-07,,Amateur 40-49,89,,,,,,170,182.5,-190,,182.5,,,,,,182.5,1
B,Multi-ply,90,M,Vladimir Kolmakov,Владимир Колмаков,1965-09-27,,Amateur 40-49,86.7,,,,,,160,170,180,,180,,,,,,180,2
B,Multi-ply,100,M,Aleksandr Anokhin,Александр Анохин,1991-07-30,,Amateur 20-23,99.4,,,,,,240,-250,-250,,240,,,,,,240,1
B,Multi-ply,100,M,Ivan Likhovetskiy,Иван Лиховецкий,1990-08-20,,Amateur 20-23,95.5,,,,,,225,-240,-240,,225,,,,,,225,3
B,Multi-ply,100,M,Georgiy Paradiz,Георгий Парадиз,1975-05-14,,Amateur Open,97.2,,,,,,225,232.5,-240,,232.5,,,,,,232.5,6
B,Multi-ply,100,M,Aleksandr Baranov,Александр Баранов,1985-11-19,,Amateur Open,94.4,,,,,,210,-222.5,-222.5,,210,,,,,,210,8
B,Multi-ply,100,M,Sergey Sapozhnikov,Сергей Сапожников,1969-08-06,,Amateur 40-49,92.9,,,,,,-195,200,210,,210,,,,,,210,1
B,Multi-ply,100,M,Valeriy Yakovenko,Валерий Яковенко,1968-02-13,,Amateur 40-49,98.9,,,,,,210,-215,,,210,,,,,,210,2
B,Multi-ply,100,M,Aleksandr Terentev,Александр Терентьев,1969-02-15,,Amateur 40-49,98,,,,,,185,192.5,-210,,192.5,,,,,,192.5,3
B,Multi-ply,100,M,Sergey Lisichkin,Сергей Лисичкин,1958-11-08,,Amateur 50-59,98.4,,,,,,150,165,-172.5,,165,,,,,,165,1
B,Multi-ply,100,M,Pyotr Isaev,Пётр Исаев,1950-01-01,,Amateur 60-69,96.7,,,,,,130,142.5,150,,150,,,,,,150,1
B,Multi-ply,110,M,Mikhail Abrashkin,Михаил Абрашкин,1983-07-19,,Amateur Open,108,,,,,,215,225,230,,230,,,,,,230,2
B,Multi-ply,110,M,Aleksandr Chebotaryov,Александр Чеботарёв,1988-03-26,,Amateur Open,104.15,,,,,,205,-215,-225,,205,,,,,,205,3
B,Multi-ply,110,M,Pavel Klevakin,Павел Клевакин,1969-10-19,,Amateur 40-49,109.1,,,,,,265,-275,-275,,265,,,,,,265,1
B,Multi-ply,110,M,Aleksandr Medvedev,Александр Медведев,1971-12-14,,Amateur 40-49,109.1,,,,,,225,-235,-240,,225,,,,,,225,2
B,Multi-ply,110,M,Salman Shamkhalov,Салман Шамхалов,1952-08-29,,Amateur 50-59,110,,,,,,180,-195,195,,195,,,,,,195,2
B,Multi-ply,125,M,Aleksandr Sykmenev,Александр Сыкменев,1978-06-24,,Amateur Open,121.5,,,,,,330,-345,-345,,330,,,,,,330,2
B,Multi-ply,125,M,Aleksandr Manchenko,Александр Манченко,1978-11-05,,Amateur Open,118.8,,,,,,-220,-220,-230,,,,,,,,,DQ
B,Multi-ply,125,M,Konstantin Matsenko,Константин Маценко,1970-12-22,,Amateur 40-49,124.5,,,,,,-200,-200,-212.5,-212.5,,,,,,,,DQ
B,Multi-ply,140,M,Andrey Melkozerov,Андрей Мелкозеров,1971-11-19,,Amateur 40-49,134.5,,,,,,-240,240,250,,250,,,,,,250,1
B,Multi-ply,140+,M,Mikhail Nekrasov,Михаил Некрасов,1969-11-19,,Amateur Open,142.4,,,,,,-220,230,240,,240,,,,,,240,1
B,Raw,44,F,Maryana Avdeenko,Марьяна Авдеенко,2004-01-01,,Amateur 0-13,35.75,,,,,,20,-22.5,22.5,,22.5,,,,,,22.5,1
B,Raw,44,F,Alena Taushkanova,Алена Таушканова,,1995,Amateur 16-17,41.2,,,,,,35,37.5,-40,,37.5,,,,,,37.5,1
B,Raw,48,F,Alena Girchich,Алена Гирчич,1995-11-08,,Amateur 16-17,47,,,,,,35,40,-45,,40,,,,,,40,1
B,Raw,48,F,Elena Vorozhishcheva,Елена Ворожищева,1976-06-18,,Amateur Open,48,,,,,,-50,50,55,,55,,,,,,55,1
B,Raw,56,F,Valeriya Bochikhina,Валерия Бочихина,1990-01-24,,Amateur 20-23,54,,,,,,50,55,-60,,55,,,,,,55,1
B,Raw,56,F,Tatyana Kulagina,Татьяна Кулагина,1972-12-11,,Amateur Open,54.85,,,,,,70,-77.5,77.5,80,77.5,,,,,,77.5,1
B,Raw,56,F,Tatyana Solonenko,Татьяна Солоненко,1981-05-20,,Amateur Open,55.6,,,,,,50,-55,-55,,50,,,,,,50,2
B,Raw,60,F,Natalya Osipova,Наталья Осипова,1992-10-16,,Amateur 18-19,58.15,,,,,,50,57.5,-60,,57.5,,,,,,57.5,1
B,Raw,60,F,Alisa Skopina,Алиса Скопина,1990-05-31,,Amateur 20-23,59.7,,,,,,47.5,52.5,57.5,,57.5,,,,,,57.5,1
B,Raw,60,F,Anna Ogorodnikova,Анна Огородникова,1984-08-22,,Amateur Open,59.25,,,,,,65,-70,70,,70,,,,,,70,1
B,Raw,67.5,F,Tatyana Platunova,Татьяна Платунова,1991-06-29,,Amateur 20-23,62.9,,,,,,55,60,-65,,60,,,,,,60,1
B,Raw,67.5,F,Natalya Kramorova,Наталья Краморова,1988-12-14,,Amateur 20-23,65.8,,,,,,50,-57.5,-60,,50,,,,,,50,2
B,Raw,75,F,Galina Tsverova,Галина Цверова,1931-07-31,,Amateur 80+,73.8,,,,,,45,47.5,50,,50,,,,,,50,1
B,Raw,90,F,Larisa Semenova,Лариса Семенова,1962-01-31,,Amateur Open,86.45,,,,,,80,85,-92.5,,85,,,,,,85,1
B,Raw,48,M,Pavel Nekrasov,Павел Некрасов,2001-07-22,,Amateur 0-13,36.4,,,,,,35,-40,-42.5,,35,,,,,,35,1
B,Raw,48,M,Aleksey Korotkikh,Алексей Коротких,1998-05-25,,Amateur 14-15,47.6,,,,,,50,-55,55,,55,,,,,,55,1
B,Raw,52,M,Kaplan Skhalyakho,Каплан Схаляхо,1990-08-28,,Amateur 20-23,51.6,,,,,,90,92.5,-95,,92.5,,,,,,92.5,1
B,Raw,52,M,Kaplan Skhalyakho,Каплан Схаляхо,1990-08-28,,Amateur Open,51.6,,,,,,90,92.5,-95,,92.5,,,,,,92.5,1
B,Raw,56,M,Amirkhan Tsomaev,Амирхан Цомаев,1990-07-23,,Amateur 20-23,56,,,,,,80,87.5,-92.5,,87.5,,,,,,87.5,1
B,Raw,60,M,Nikita Abzaev,Никита Абзаев,1998-01-14,,Amateur 14-15,56.4,,,,,,60,62.5,65,,65,,,,,,65,1
B,Raw,60,M,Georgiy Lobzhanidze,Георгий Лобжанидзе,1995-05-28,,Amateur 16-17,59,,,,,,87.5,-95,-95,,87.5,,,,,,87.5,1
B,Raw,60,M,Tigran Saakyan,Тигран Саакян,,1993,Amateur 18-19,56.8,,,,,,90,-100,-100,,90,,,,,,90,1
B,Raw,60,M,Evgeniy Kovrigin,Евгений Ковригин,1988-09-26,,Amateur 20-23,59.9,,,,,,107.5,115,-120,,115,,,,,,115,1
B,Raw,60,M,Andrey Larin,Андрей Ларин,1992-01-20,,Amateur 20-23,57.2,,,,,,90,-92.5,92.5,,92.5,,,,,,92.5,2
B,Raw,67.5,M,Artyom Muchkin,Артём Мучкин,1997-10-23,,Amateur 14-15,65.2,,,,,,75,77.5,-80,,77.5,,,,,,77.5,1
B,Raw,67.5,M,Nikolay Tsylyov,Николай Цылёв,1985-10-02,,Amateur Open,67.2,,,,,,135,145,-147.5,,145,,,,,,145,1
B,Raw,67.5,M,Admir Shidginov,Адмир Шидгинов,1986-03-05,,Amateur Open,65.1,,,,,,115,122.5,125,,125,,,,,,125,2
B,Raw,67.5,M,Vladimir Zabolotnev,Владимир Заболотнев,1968-02-25,,Amateur 40-49,67,,,,,,142.5,-150,150,,150,,,,,,150,1
B,Raw,67.5,M,Mikhail Zinkeev,Михаил Зинкеев,1967-03-14,,Amateur 40-49,63.2,,,,,,115,-120,-120,,115,,,,,,115,2
B,Raw,75,M,Konstantin Sokolovskiy,Константин Соколовский,1995-04-30,,Amateur 16-17,69.6,,,,,,125,130,135,,135,,,,,,135,1
B,Raw,75,M,Maksim Bogdanov,Максим Богданов,1992-10-12,,Amateur 18-19,70,,,,,,140,150,155,,155,,,,,,155,1
B,Raw,75,M,Aslanbek Pchikhachev,Асланбек Пчихачев,1991-08-20,,Amateur 20-23,74.7,,,,,,140,145,-147.5,,145,,,,,,145,1
B,Raw,75,M,Alim Emkushev,Алим Емкушев,1989-01-18,,Amateur 20-23,74.9,,,,,,-115,120,130,,130,,,,,,130,2
B,Raw,75,M,Evgeniy Simbirskikh,Евгений Симбирских,1988-01-13,,Amateur Open,74.5,,,,,,165,-175,-177.5,,165,,,,,,165,1
B,Raw,75,M,Ilya Babin,Илья Бабин,1980-04-18,,Amateur Open,71,,,,,,-155,155,157.5,,157.5,,,,,,157.5,2
B,Raw,75,M,Vladimir Rybalko,Владимир Рыбалко,1987-05-04,,Amateur Open,74.2,,,,,,145,-150,150,,150,,,,,,150,3
B,Raw,75,M,Aleksey Abramov,Алексей Абрамов,1984-03-25,,Amateur Open,74.2,,,,,,140,145,-147.5,,145,,,,,,145,4
B,Raw,75,M,Stepan Pogosyan,Степан Погосян,1985-04-18,,Amateur Open,74.6,,,,,,125,130,135,,135,,,,,,135,5
B,Raw,75,M,Anton Rusov,Антон Русов,1988-04-11,,Amateur Open,75,,,,,,122.5,132.5,-137.5,,132.5,,,,,,132.5,6
B,Raw,75,M,Ramin Rzaev,Рамин Рзаев,1980-07-24,,Amateur Open,73.2,,,,,,-170,-170,-175,,,,,,,,,DQ
B,Raw,75,M,Nikolay Storozhenko,Николай Стороженко,1979-08-21,,Amateur Open,74.8,,,,,,-132.5,-140,-140,,,,,,,,,DQ
B,Raw,75,M,Ruslan Inapshba,Руслан Инапшба,1969-07-03,,Amateur 40-49,72.4,,,,,,100,-105,-105,,100,,,,,,100,1
B,Raw,75,M,Vladimir Vodyanykh,Владимир Водяных,1953-01-07,,Amateur 50-59,73.7,,,,,,-120,-125,125,,125,,,,,,125,1
B,Raw,75,M,Valeriy Baranov,Валерий Баранов,1940-12-04,,Amateur 70-79,71.9,,,,,,-80,90,-95,,90,,,,,,90,1
B,Raw,82.5,M,Rashid Inapshba,Рашид Инапшба,1995-08-16,,Amateur 16-17,81,,,,,,110,120,-125,,120,,,,,,120,1
B,Raw,82.5,M,Sergey Smagin,Сергей Смагин,1992-09-25,,Amateur 18-19,79.7,,,,,,135,-145,147.5,,147.5,,,,,,147.5,1
B,Raw,82.5,M,Ilya Timkin,Илья Тимкин,1992-07-28,,Amateur 18-19,78.5,,,,,,-115,115,120,,120,,,,,,120,2
B,Raw,82.5,M,Dmitriy Prozorov,Дмитрий Прозоров,1985-03-12,,Amateur Open,81.9,,,,,,170,175,177.5,,177.5,,,,,,177.5,1
B,Raw,82.5,M,Dmitriy Plyukhin,Дмитрий Плюхин,1980-04-23,,Amateur Open,82.4,,,,,,165,172.5,-177.5,,172.5,,,,,,172.5,2
B,Raw,82.5,M,Leonid Yakovlev,Леонид Яковлев,1985-11-03,,Amateur Open,82.15,,,,,,-165,165,-170,,165,,,,,,165,3
B,Raw,82.5,M,Ruslan Redinov,Руслан Рединов,1981-03-12,,Amateur Open,81.1,,,,,,-130,-130,130,,130,,,,,,130,4
B,Raw,82.5,M,Rishat Fattakhov,Ришат Фаттахов,1967-05-08,,Amateur 40-49,82.5,,,,,,145,150,155,,155,,,,,,155,1
B,Raw,82.5,M,Sergey Voronets,Сергей Воронец,1971-10-16,,Amateur 40-49,82,,,,,,140,-147.5,-152.5,,140,,,,,,140,2
B,Raw,82.5,M,Andrey Mameshin,Андрей Мамешин,1964-08-26,,Amateur 40-49,79.45,,,,,,100,110,120,,120,,,,,,120,3
B,Raw,82.5,M,Sergey Rudenko,Сергей Руденко,1959-07-11,,Amateur 50-59,80,,,,,,135,140.5,-150,,140.5,,,,,,140.5,1
B,Raw,82.5,M,Vyacheslav Piskalov,Вячеслав Пискалов,1958-10-23,,Amateur 50-59,81.2,,,,,,115,122.5,,,122.5,,,,,,122.5,2
B,Raw,82.5,M,Eldar Tsoriev,Эльдар Цориев,1946-02-17,,Amateur 60-69,80.75,,,,,,127.5,132.5,136,,136,,,,,,136,1
B,Raw,90,M,Vladislav Derevyanko,Владислав Деревянко,1991-11-23,,Amateur 18-19,88.5,,,,,,160,165,-170,,165,,,,,,165,1
B,Raw,90,M,Stanislav Rybalchenko,Станислав Рыбальченко,1988-06-07,,Amateur 20-23,89.55,,,,,,160,165,-170,,165,,,,,,165,1
B,Raw,90,M,Denis Akimov,Денис Акимов,1988-07-28,,Amateur 20-23,88.9,,,,,,125,135,-140,,135,,,,,,135,2
B,Raw,90,M,Mayrbek Atoev,Майрбек Атоев,1974-11-27,,Amateur Open,88.8,,,,,,190,195,-201,,195,,,,,,195,1
B,Raw,90,M,Yuriy Fedorov,Юрий Федоров,1975-05-23,,Amateur Open,86.7,,,,,,180,190,-192.5,,190,,,,,,190,2
B,Raw,90,M,Andrey Galayda,Андрей Галайда,1972-02-07,,Amateur Open,86.7,,,,,,182.5,187.5,-191.5,,187.5,,,,,,187.5,3
B,Raw,90,M,Aleksey Leushin,Алексей Леушин,1987-08-10,,Amateur Open,88,,,,,,170,175,-177.5,,175,,,,,,175,4
B,Raw,90,M,Viktor Kudimov,Виктор Кудимов,1983-01-02,,Amateur Open,87.8,,,,,,160,167.5,-175,,167.5,,,,,,167.5,5
B,Raw,90,M,Aleksandr Melyanovskiy,Александр Мельяновский,1978-04-05,,Amateur Open,88.7,,,,,,155,167.5,-172.5,,167.5,,,,,,167.5,6
B,Raw,90,M,Eduard Putilov,Эдуард Путилов,1976-03-24,,Amateur Open,89.9,,,,,,140,147.5,-155,,147.5,,,,,,147.5,7
B,Raw,90,M,Andrey Galayda,Андрей Галайда,1972-02-07,,Amateur 40-49,86.7,,,,,,182.5,187.5,-191.5,,187.5,,,,,,187.5,1
B,Raw,90,M,Evgeniy Zverev,Евгений Зверев,1967-09-28,,Amateur 40-49,89,,,,,,155,160,170,,170,,,,,,170,2
B,Raw,90,M,Andrey Burkov,Андрей Бурков,1970-07-06,,Amateur 40-49,89,,,,,,167.5,-175,-175,,167.5,,,,,,167.5,3
B,Raw,90,M,Vladimir Kolmakov,Владимир Колмаков,1965-09-27,,Amateur 40-49,87.1,,,,,,120,,,,120,,,,,,120,4
B,Raw,90,M,Valeriy Zheleznov,Валерий Железнов,1959-09-05,,Amateur 50-59,88.8,,,,,,140,-145,-145,,140,,,,,,140,1
B,Raw,90,M,Aleksey Krivchikov,Алексей Кривчиков,1948-07-19,,Amateur 60-69,89.9,,,,,,115,-125,127.5,,127.5,,,,,,127.5,1
B,Raw,100,M,Andrey Kormshchikov,Андрей Кормщиков,1992-06-21,,Amateur 18-19,93.7,,,,,,172.5,177.5,182.5,,182.5,,,,,,182.5,1
B,Raw,100,M,Denis Skryabin,Денис Скрябин,1989-05-07,,Amateur 20-23,98.7,,,,,,157.5,-162.5,165,,165,,,,,,165,1
B,Raw,100,M,Mirza Sefikhanov,Мирза Сефиханов,1976-06-04,,Amateur Open,90.35,,,,,,180,190,-200,,190,,,,,,190,1
B,Raw,100,M,Sergey Mantserov,Сергей Манцеров,1970-10-27,,Amateur Open,93.75,,,,,,170,-180,180,,180,,,,,,180,2
B,Raw,100,M,Evstafiy Iosifidi,Евстафий Иосифиди,1984-09-25,,Amateur Open,97.2,,,,,,150,162.5,165,,165,,,,,,165,3
B,Raw,100,M,Vladimir Astakhov,Владимир Астахов,1979-07-11,,Amateur Open,98.7,,,,,,165,-172.5,-172.5,,165,,,,,,165,4
B,Raw,100,M,Dmitriy Bibanaev,Дмитрий Бибанаев,1980-08-02,,Amateur Open,99.9,,,,,,155,162.5,-165,,162.5,,,,,,162.5,5
B,Raw,100,M,Sergey Romanov,Сергей Романов,1963-01-15,,Amateur 40-49,92,,,,,,190,200,-205,,200,,,,,,200,1
B,Raw,100,M,Sergey Mantserov,Сергей Манцеров,1970-10-27,,Amateur 40-49,93.75,,,,,,170,-180,180,,180,,,,,,180,2
B,Raw,100,M,Vladimir Nikonov,Владимир Никонов,1966-12-22,,Amateur 40-49,92.9,,,,,,165,170,-180,,170,,,,,,170,3
B,Raw,100,M,Anatoliy Pinyasov,Анатолий Пинясов,1967-05-22,,Amateur 40-49,99.7,,,,,,-150,-162.5,-162.5,,,,,,,,,DQ
B,Raw,100,M,Vladimir Zakharov,Владимир Захаров,1955-07-07,,Amateur 50-59,98.75,,,,,,157.5,162.5,-167.5,,162.5,,,,,,162.5,1
B,Raw,100,M,Sergey Lisichkin,Сергей Лисичкин,1958-11-08,,Amateur 50-59,99.1,,,,,,135,140,142.5,,142.5,,,,,,142.5,2
B,Raw,100,M,Valeriy Tsyganov,Валерий Цыганов,1956-01-21,,Amateur 50-59,99.45,,,,,,130,135,-140,,135,,,,,,135,3
B,Raw,100,M,Sergey Kuzminykh,Сергей Кузьминых,1962-04-25,,Amateur 50-59,99.7,,,,,,112.5,120,127.5,,127.5,,,,,,127.5,4
B,Raw,100,M,Grigoriy Kalinin,Григорий Калинин,1950-11-19,,Amateur 60-69,99.8,,,,,,140,-150,-150,,140,,,,,,140,1
B,Raw,100,M,Pyotr Isaev,Пётр Исаев,1950-01-01,,Amateur 60-69,97,,,,,,110,,,,110,,,,,,110,2
B,Raw,100,M,Valeriy Bystrov,Валерий Быстров,1941-06-14,,Amateur 70-79,97.3,,,,,,110,115,117.5,,117.5,,,,,,117.5,1
B,Raw,110,M,Pavel Cheredov,Павел Чередов,1984-10-02,,Amateur Open,110,,,,,,225,-235,235,,235,,,,,,235,1
B,Raw,110,M,Farkhad Orudzhev,Фархад Оруджев,1974-06-04,,Amateur Open,107.45,,,,,,180,190,-200,,190,,,,,,190,2
B,Raw,110,M,Oleg Kozmirenko,Олег Козмиренко,1969-07-01,,Amateur 40-49,100.5,,,,,,170,175,180,,180,,,,,,180,1
B,Raw,110,M,Oleg Rybalkin,Олег Рыбалкин,1971-10-07,,Amateur 40-49,106.55,,,,,,170,175,180,,180,,,,,,180,2
B,Raw,110,M,Ruslan Yafasov,Руслан Яфасов,1971-06-26,,Amateur 40-49,109.4,,,,,,160,172.5,-177.5,,172.5,,,,,,172.5,3
B,Raw,110,M,Aleksandr Poluektov,Александр Полуэктов,1957-02-03,,Amateur 50-59,102.3,,,,,,172.5,-180,180,185,180,,,,,,180,1
B,Raw,125,M,Umar Bugov,Умар Бугов,1989-03-02,,Amateur 20-23,111,,,,,,175,182.5,187.5,192.5,187.5,,,,,,187.5,1
B,Raw,125,M,Isa Israilov,Иса Исраилов,1984-06-27,,Amateur Open,120.7,,,,,,230,240,-250,,240,,,,,,240,1
B,Raw,125,M,Dmitriy Rezaykin,Дмитрий Резайкин,1984-02-12,,Amateur Open,124,,,,,,-195,205,215,,215,,,,,,215,2
B,Raw,125,M,Andrey Sharov,Андрей Шаров,1974-02-07,,Amateur Open,115.9,,,,,,200,210,-215,,210,,,,,,210,3
B,Raw,125,M,Aleksandr Kozhevnikov,Александр Кожевников,1977-07-01,,Amateur Open,113.3,,,,,,190,-200,-205,,190,,,,,,190,4
B,Raw,125,M,Umar Bugov,Умар Бугов,1989-03-02,,Amateur Open,111,,,,,,175,182.5,187.5,192.5,187.5,,,,,,187.5,5
B,Raw,125,M,Dmitriy Mikheev,Дмитрий Михеев,1976-03-19,,Amateur Open,124.25,,,,,,165,-175,-175,,165,,,,,,165,6
B,Raw,125,M,Konstantin Matsenko,Константин Маценко,1970-12-22,,Amateur 40-49,123.7,,,,,,160,170,-175,,170,,,,,,170,1
B,Raw,140,M,Andrey Melkozyorov,Андрей Мелкозёров,1971-11-19,,Amateur Open,134.5,,,,,,220,-236,-236,,220,,,,,,220,1
B,Raw,140,M,Andrey Melkozyorov,Андрей Мелкозёров,1971-11-19,,Amateur 40-49,134.5,,,,,,220,-236,-236,,220,,,,,,220,1
B,Raw,140,M,Igor Khutorov,Игорь Хуторов,1963-11-05,,Amateur 40-49,128.9,,,,,,205,207.5,210,,210,,,,,,210,2
B,Raw,140+,M,Israfil Mammadov,Исрафил Маммадов,1976-08-02,,Amateur Open,155.4,,,,,,190,207.5,-210,,207.5,,,,,,207.5,1
B,Raw,140+,M,Nikolay Timofeev,Николай Тимофеев,1982-07-30,,Amateur Open,145.7,,,,,,195,205,-210,,205,,,,,,205,2
SBD,Multi-ply,67.5,F,Aliya Khakimova,Алия Хакимова,1986-11-21,,Amateur Open,64.2,150,165,-172.5,,165,75,-80,-80,,75,155,165,167.5,,167.5,407.5,1
SBD,Multi-ply,67.5,F,Vasilina Avdeenko,Василина Авдеенко,1983-08-19,,Amateur Open,66.4,160,170,177.5,,177.5,70,-75,-75,,70,130,140,-162.5,,140,387.5,3
SBD,Multi-ply,67.5,M,Marat Kurdanov,Марат Курданов,1993-08-31,,Amateur 18-19,63.7,130,140,147.5,,147.5,82.5,90,-97.5,,90,165,175,185,,185,422.5,2
SBD,Multi-ply,67.5,M,Rustam Musaev,Рустам Мусаев,1978-09-08,,Amateur Open,67.5,242.5,255,262.5,,262.5,70,-85,,,70,220,235,245,-250,245,577.5,1
SBD,Multi-ply,67.5,M,Sergey Alampiev,Сергей Алампиев,1957-04-07,,Amateur 50-59,65.8,180,200,205,,205,95,105,-110,,105,170,190,200,,200,510,1
SBD,Multi-ply,75,M,Ivan Bezrukov,Иван Безруков,1989-01-05,,Amateur 20-23,73.3,180,195,202.5,,202.5,85,110,117.5,,117.5,177.5,182.5,185,,185,505,1
SBD,Multi-ply,75,M,Oleg Zalata,Олег Залата,1985-03-04,,Amateur Open,74.1,-180,180,200,,200,100,110,120,,120,150,170,180,,180,500,2
SBD,Multi-ply,82.5,M,Vladimir Konkin,Владимир Конкин,1989-06-21,,Amateur 20-23,81.8,280,290,295.5,,295.5,-152.5,152.5,157.5,,157.5,197.5,207.5,217.5,,217.5,670.5,1
SBD,Multi-ply,82.5,M,Roman Stupnikov,Роман Ступников,1988-01-21,,Amateur Open,79.35,260,280,300,,300,150,160,165,,165,270,-280,-280,,270,735,3
SBD,Multi-ply,82.5,M,Aleksandr Miranovich,Александр Миранович,1986-10-23,,Amateur Open,77.1,170,180,190,,190,120,130,135,,135,140,150,160,,160,485,6
SBD,Multi-ply,82.5,M,Anton Rusov,Антон Русов,1988-04-11,,Amateur Open,76.1,,-130,130,,130,122.5,132.5,-137.5,,132.5,142.5,152.5,-162.5,,152.5,415,7
SBD,Multi-ply,82.5,M,Andrey Marmoza,Андрей Мармоза,1959-12-12,,Amateur 50-59,80.1,220,-235,235,,235,65,105,110,,110,180,195,-200,,195,540,1
SBD,Multi-ply,90,M,Sergey Olisov,Сергей Олисов,1992-06-10,,Amateur 18-19,88.3,260,275,300,,300,160,170,-185,,170,240,260,-270,,260,730,1
SBD,Multi-ply,90,M,Samir Salimkhanov,Самир Салимханов,1988-09-23,,Amateur 20-23,89.7,280,300,-320,,300,170,185,190,,190,240,257.5,-277.5,,257.5,747.5,2
SBD,Multi-ply,90,M,Aleksey Safonov,Алексей Сафонов,1976-10-03,,Amateur Open,86.6,295,315,335,,335,160,175,-190,,175,235,255,265,,265,775,1
SBD,Multi-ply,90,M,Sergey Olisov,Сергей Олисов,1992-06-10,,Amateur Open,88.3,260,275,300,,300,160,170,-185,,170,240,260,-270,,260,730,2
SBD,Multi-ply,90,M,Vladimir Kolmakov,Владимир Колмаков,1965-09-27,,Amateur 40-49,86.7,180,200,,,200,100,,,,100,180,200,,,200,500,1
SBD,Multi-ply,100,M,Eldar Mammadov,Эльдар Маммадов,1978-08-14,,Amateur Open,97.9,240,260,280,,280,185,195,-200,,195,220,246,271,,271,746,3
SBD,Multi-ply,100,M,Pavel Galayda,Павел Галайда,1968-06-03,,Amateur Open,98.8,150,180,200,,200,160,170,180,,180,190,220,-240,,220,600,5
SBD,Multi-ply,100,M,Andrey Sizov,Андрей Сизов,1968-01-29,,Amateur 40-49,92.7,300,330,350,,350,-200,200,,,200,300,320,340,,340,890,1
SBD,Multi-ply,100,M,Pavel Galayda,Павел Галайда,1968-06-03,,Amateur 40-49,98.8,150,180,200,,200,160,170,180,,180,190,220,-240,,220,600,3
SBD,Multi-ply,110,M,Artyom Grigoryan,Артём Григорян,1988-05-12,,Amateur Open,106.1,-200,200,,,200,170,185,-200,,185,200,250,-265,,250,635,2
SBD,Multi-ply,110,M,Andrey Zapylikhin,Андрей Запылихин,1960-09-07,,Amateur 50-59,107.7,285,,,,285,205,215,222.5,,222.5,237.5,250,,,250,757.5,1
SBD,Multi-ply,125,M,Vladimir Blinkov,Владимир Блинков,1978-11-03,,Amateur Open,115.3,360,380,400,,400,230,-237.5,237.5,,237.5,300,320,332.5,,332.5,970,1
SBD,Multi-ply,125,M,Denis Makeev,Денис Макеев,1983-04-22,,Amateur Open,122,240,260,280,,280,175,185,195,,195,265,285,300,,300,775,3
SBD,Wraps,56,F,Yuliana Krupova,Юлиана Крупова,1984-09-10,,Amateur Open,54.4,95,105,110,,110,55,-60,-60,,55,115,120,-125,,120,285,2
SBD,Wraps,56,F,Tatyana Solonenko,Татьяна Солоненко,1981-05-20,,Amateur Open,55.6,85,90,-95,,90,50,-55,55,,55,105,-112.5,-112.5,,105,250,3
SBD,Wraps,60,F,Rimma Karimova,Римма Каримова,1983-06-14,,Amateur Open,59.6,80,-86,-86,,80,45,-47.5,-47.5,,45,110,-121,121,,121,246,1
SBD,Wraps,67.5,F,Ekaterina Kustodyncheva,Екатерина Кустодынчева,1986-03-14,,Amateur Open,66,90,97.5,105,,105,62.5,65,-67.5,,65,120,130,-135,,130,300,2
SBD,Wraps,67.5,F,Yuliya Pilipchatina,Юлия Пилипчатина,1984-09-29,,Amateur Open,64.5,105,115,-122.5,,115,-60,-60,-60,,,,,,,,,DQ
SBD,Wraps,56,M,Arutyun Topchyan,Арутюн Топчян,1996-02-14,,Amateur Teen 16-17,56,-90,,90,,90,70,75,,,75,120,130,145,,145,310,1
SBD,Wraps,56,M,Gunda Kvekveskiri,Гунда Квеквескири,1963-10-18,,Amateur M 40-49,55.8,60,70,75,,75,37.5,-40,-40,,37.5,60,70,-80,,70,182.5,1
SBD,Wraps,60,M,Petr Chekushkin,Петр Чекушкин,1997-10-31,,Amateur 13-15,59.9,120,130,132.5,,132.5,80,-85,-85,,80,120,127.5,132.5,,132.5,345,1
SBD,Wraps,60,M,Edmon Markosyan,Эдмон Маркосян,1996-07-21,,Amateur 13-15,60,110,120,-130,,120,80,-85,85,,85,125,135,-142.5,,135,340,2
SBD,Wraps,60,M,Albert Kurmanov,Альберт Курманов,1992-07-14,,Amateur Teen 18-19,59.3,110,120,130,,130,80,90,95,,95,160,175,-187.5,,175,400,1
SBD,Wraps,60,M,Elmir Tarverdiev,Эльмир Тарвердиев,1983-07-09,,Amateur Open,59.5,160,170,177.5,,177.5,-100,110,-115,,110,190,210,-220,,210,497.5,1
SBD,Wraps,60,M,Petr Chekushkin,Петр Чекушкин,1997-10-31,,Amateur Open,59.9,120,130,132.5,,132.5,80,-85,-85,,80,120,127.5,132.5,,132.5,345,2
SBD,Wraps,67.5,M,Stepan Kocheshkov,Степан Кочешков,1994-04-29,,Amateur Teen 18-19,61.6,145,155,160,,160,85,90,-97.5,,90,195,205,-210,,205,455,1
SBD,Wraps,67.5,M,Georgiy Partalyan,Георгий Парталян,1983-11-03,,Amateur Open,67.1,150,160,-170,,160,100,110,-120,,110,140,150,160,,160,430,2
SBD,Wraps,67.5,M,Sergey Alampiev,Сергей Алампиев,1957-04-07,,Amateur M 50-59,65.85,135,145,150,,150,85,95,100,,100,160,180,200,,200,450,1
SBD,Wraps,75,M,Aleksandr Yudin,Александр Юдин,1993-06-23,,Amateur Teen 18-19,71.3,145,155,165,,165,95,102.5,110,,110,180,195,210,,210,485,1
SBD,Wraps,75,M,Alkhas Shengeliya,Алхас Шенгелия,1993-04-25,,Amateur Teen 18-19,73,-115,115,120,,120,80,-85,,,80,130,-140,-140,,130,330,2
SBD,Wraps,75,M,Aslanbek Pchikhachev,Асланбек Пчихачев,1991-08-20,,Amateur Junior,75,150,160,162.5,,162.5,140,142.5,145,,145,190,195,197.5,,197.5,505,1
SBD,Wraps,75,M,Aleksey Vikhrov,Алексей Вихров,1988-10-12,,Amateur Junior,73.6,-160,160,170,,170,100,105,110,,110,200,210,222.5,,222.5,502.5,2
SBD,Wraps,75,M,Nikolay Kravchenko,Николай Кравченко,1985-10-06,,Amateur Open,73.3,175,185,,,185,135,145,-150,,145,175,192.5,202.5,,202.5,532.5,4
SBD,Wraps,75,M,Vladimir Pryazhentsev,Владимир Пряженцев,1965-12-04,,Amateur M 40-49,75,175,185,190,,190,117.5,125,130,,130,200,225,230,,230,550,1
SBD,Wraps,82.5,M,Levon Myuselimyan,Левон Мюселимян,1996-01-05,,Amateur Teen 16-17,82.5,125,130,135,,135,100,-105,105,,105,140,-150,150,,150,390,1
SBD,Wraps,82.5,M,Dmitriy Rastorguev,Дмитрий Расторгуев,1993-12-18,,Amateur Teen 18-19,79.7,190,200,211.5,,211.5,125,132.5,135,,135,190,200,207.5,,207.5,554,1
SBD,Wraps,82.5,M,Ruslan Chitaya,Руслан Читая,1993-02-06,,Amateur Teen 18-19,77.2,110,120,-130,,120,105,112.5,-117.5,,112.5,140,160,180,,180,412.5,2
SBD,Wraps,82.5,M,Vyacheslav Piskalov,Вячеслав Пискалов,1958-10-23,,Amateur Open,81.3,205,215,222.5,,222.5,115,122.5,-127.5,,122.5,210,220,227.5,,227.5,572.5,6
SBD,Wraps,82.5,M,Ramil Akhmedov,Рамиль Ахмедов,1988-05-06,,Amateur Open,80.5,170,190,-200,,190,115,125,-132.5,,125,210,225,-250,,225,540,7
SBD,Wraps,82.5,M,Valeriy Korepanov,Валерий Корепанов,1966-10-17,,Amateur M 40-49,78.6,140,160,-165,,160,-110,110,-115,,110,160,180,190,,190,460,1
SBD,Wraps,82.5,M,Vyacheslav Piskalov,Вячеслав Пискалов,1958-10-23,,Amateur M 50-59,81.3,205,215,222.5,,222.5,115,122.5,-127.5,,122.5,210,220,227.5,,227.5,572.5,1
SBD,Wraps,82.5,M,Vladimir Makovetskiy,Владимир Маковецкий,1953-02-27,,Amateur M 50-59,79.8,175,-180,-180,,175,90,95,,,95,170.5,175,,,175,445,2
SBD,Wraps,90,M,Adamur Kogoniya,Адамур Когония,1995-02-12,,Amateur Teen 16-17,89.2,125,140,150,,150,95,100,110,,110,180,-200,-210,,180,440,1
SBD,Wraps,90,M,Dmitriy Kurok,Дмитрий Курок,1993-10-06,,Amateur Teen 18-19,88.8,175,185,190,,190,110,120,-127.5,,120,190,205,215,,215,525,1
SBD,Wraps,90,M,Aleksey Zotov,Алексей Зотов,1989-03-26,,Amateur Junior,88,190,202.5,205,,205,-145,145,-155,,145,230,-257.5,-257.5,,230,580,1
SBD,Wraps,90,M,Nikon Israelyan,Никон Исраелян,1991-11-30,,Amateur Junior,87.1,150,160,-170,,160,125,-135,-135,,125,180,200,-215,,200,485,2
SBD,Wraps,90,M,Murat Tokuev,Мурат Токуев,1980-08-10,,Amateur Open,86.2,180,195,202.5,,202.5,120,127.5,132.5,,132.5,215,-230,230,,230,565,6
SBD,Wraps,90,M,Sergey Talalaev,Сергей Талалаев,1968-09-07,,Amateur Open,89.8,160,175,185,,185,135,145,150,,150,200,-220,220,,220,555,7
SBD,Wraps,90,M,Maksim Bykov,Максим Быков,1977-06-20,,Amateur Open,84.3,180,190,,,190,130,-140,,,130,210,-220,,,210,530,8
SBD,Wraps,90,M,Sergey Talalaev,Сергей Талалаев,1968-09-07,,Amateur M 40-49,89.8,160,175,185,,185,135,145,150,,150,200,-220,220,,220,555,1
SBD,Wraps,90,M,Vladimir Kolmakov,Владимир Колмаков,1965-09-27,,Amateur M 40-49,86.7,130,,,,130,100,,,,100,150,,,,150,380,2
SBD,Wraps,90,M,Valeriy Filippov,Валерий Филиппов,1943-07-17,,Amateur M 60-69,87.2,135,-140,140,,140,60,,,,60,190,200,-210,,200,400,1
SBD,Wraps,100,M,Denis Korobeynikov,Денис Коробейников,1990-04-16,,Amateur Junior,94.4,220,235,245,250,245,155,165,-170,,165,260,275,285,,285,695,1
SBD,Wraps,100,M,Vladislav Bogomazov,Владислав Богомазов,1991-03-26,,Amateur Junior,97.1,190,205,215,,215,130,137.5,145,,145,240,250,255,,255,615,2
SBD,Wraps,100,M,Denis Korobeynikov,Денис Коробейников,1990-04-16,,Amateur Open,94.4,220,235,245,250,245,155,165,-170,,165,260,275,285,,285,695,4
SBD,Wraps,100,M,Damey Shamba,Дамей Шамба,1988-02-23,,Amateur Open,95.1,170,180,190,,190,130,135,140,,140,200,220,230,,230,560,5
SBD,Wraps,100,M,Aleksandr Ilin,Александр Ильин,1964-11-20,,Amateur M 40-49,97.95,185,195,200,,200,150,157.5,-160,,157.5,217.5,-227.5,230,,230,587.5,1
SBD,Wraps,100,M,Anatoliy Pinyasov,Анатолий Пинясов,1967-05-22,,Amateur M 40-49,99.7,170,180,-185,,180,145,-155,,,145,190,-200,,,190,515,2
SBD,Wraps,100,M,Valeriy Bystrov,Валерий Быстров,1941-06-14,,Amateur M 70-79,97.3,185,190,200,,200,115,-120,-120,,115,195,205,-212.5,,205,520,1
SBD,Wraps,110,M,Oleg Dogadin,Олег Догадин,1989-07-21,,Amateur Junior,108.9,230,245,255,,255,160,170,175,,175,275,290,,,290,720,1
SBD,Wraps,110,M,Dmitriy Stavskiy,Дмитрий Ставский,1989-03-29,,Amateur Junior,105,245,-255,261,267,261,127.5,135,-140,,135,265,280,291,,291,687,2
SBD,Wraps,110,M,David Dzhidaryan,Давид Джидарян,1989-10-23,,Amateur Junior,108.9,-160,-160,-160,,,,,,,,,,,,,,DQ
SBD,Wraps,110,M,Denis Chernyshev,Денис Чернышев,1985-08-15,,Amateur Open,101.7,260,270,-275,,270,195,202.5,-205,,202.5,-290,290,302.5,,302.5,775,3
SBD,Wraps,110,M,Denis Astakhov,Денис Астахов,1984-05-21,,Amateur Open,102.5,280,295,-305,,295,150,165,-172.5,,165,285,-300,-305,,285,745,5
SBD,Wraps,110,M,Aleksandr Kozhevnikov,Александр Кожевников,1977-07-01,,Amateur Open,109.4,230,240,,,240,180,-195,,,180,250,,,,250,670,7
SBD,Wraps,110,M,Igor Konykhov,Игорь Коныхов,1970-12-20,,Amateur M 40-49,103.45,170,185,-200,,185,130,145,-155,,145,210,225,230,,230,560,1
SBD,Wraps,125,M,Maksim Talalov,Максим Талалов,1989-04-21,,Amateur Junior,113.8,200,207.5,215,,215,137.5,145,-147.5,,145,220,230,240,,240,600,1
SBD,Wraps,125,M,Evgeniy Kiselev,Евгений Киселев,1978-06-04,,Amateur Open,124.8,250,-260,260,,260,180,190,-200,,190,270,287.5,297.5,,297.5,747.5,3
SBD,Wraps,125,M,Aleksandr Lutskevich,Александр Луцкевич,1972-09-10,,Amateur Open,122.1,255,270,280,,280,180,-187.5,-187.5,,180,260,275,285,,285,745,4
SBD,Wraps,125,M,Oleg Vasyuchenko,Олег Васюченко,1968-03-01,,Amateur M 40-49,124.2,230,-260,,,230,140,,,,140,250,-270,,,250,620,1
SBD,Wraps,140,M,Mikhail Chekushkin,Михаил Чекушкин,1960-03-17,,Amateur Open,136.3,240,260,,,260,120,130,-140,,130,220,240,250,,250,640,3
SBD,Wraps,140,M,Mikhail Chekushkin,Михаил Чекушкин,1960-03-17,,Amateur M 50-59,136.3,240,260,,,260,120,130,-140,,130,220,240,250,,250,640,1
B,Multi-ply,52,F,Tatyana Dzhanpoladova,Татьяна Джанполадова,1984-09-15,,Open,52,,,,,,85,90,-95,,90,,,,,,90,1
B,Multi-ply,60,F,Irina Fomenko,Ирина Фоменко,1985-05-28,,Open,58.65,,,,,,40,50,-55,,50,,,,,,50,2
B,Multi-ply,67.5,F,Natalya Shvachko,Наталья Швачко,1990-03-01,,20-23,66.45,,,,,,95,100,105,,105,,,,,,105,1
B,Multi-ply,52,M,Semen Paley,Семен Палей,1999-03-14,,14-15,51.8,,,,,,70,-77.5,77.5,-80,77.5,,,,,,77.5,1
B,Multi-ply,56,M,Viktor Balashov,Виктор Балашов,1947-09-01,,60-69,56,,,,,,90,95,-100,,95,,,,,,95,1
B,Multi-ply,60,M,Danil Dormidontov,Данил Дормидонтов,1992-03-11,,20-23,59.9,,,,,,-130,130,-147.5,,130,,,,,,130,1
B,Multi-ply,75,M,Ivan Semenikhin,Иван Семенихин,1991-03-30,,20-23,74.15,,,,,,-185,-185,185,-215.5,185,,,,,,185,1
B,Multi-ply,75,M,Andrey Veselov,Андрей Веселов,1975-11-11,,Open,74.5,,,,,,170,-180,180,,180,,,,,,180,3
B,Multi-ply,75,M,Konstantin Zhigulin,Константин Жигулин,1987-10-03,,Open,74.95,,,,,,-175,177.5,-182.5,,177.5,,,,,,177.5,4
B,Multi-ply,82.5,M,Andrey Dudinets,Андрей Дудинец,1991-02-06,,20-23,82.2,,,,,,-205,205,-215,,205,,,,,,205,1
B,Multi-ply,82.5,M,Sergey Koshkin,Сергей Кошкин,1971-09-28,,Open,82.05,,,,,,270,280,290,-300.5,290,,,,,,290,1
B,Multi-ply,82.5,M,Dmitriy Savchenko,Дмитрий Савченко,1981-08-03,,Open,80.15,,,,,,150,-170,-170,,150,,,,,,150,5
B,Multi-ply,82.5,M,Akshin Ismailov,Акшин Исмаилов,1978-03-30,,Open,80.6,,,,,,-215,-215,-215,,,,,,,,,DQ
B,Multi-ply,82.5,M,Sergey Koshkin,Сергей Кошкин,1971-09-28,,40-49,82.05,,,,,,270,280,290,-300.5,290,,,,,,290,1
B,Multi-ply,82.5,M,Vladimir Korolchenko,Владимир Корольченко,1950-11-02,,60-69,80.9,,,,,,130,145,-150,,145,,,,,,145,1
B,Multi-ply,82.5,M,Vladimir Nagalyuk,Владимир Нагалюк,1951-09-21,,60-69,80.75,,,,,,70,75,,,75,,,,,,75,2
B,Multi-ply,90,M,Sergey Kalinin,Сергей Калинин,1989-07-20,,20-23,86,,,,,,200,215,-230,,215,,,,,,215,1
B,Multi-ply,90,M,Andrey Yufatov,Андрей Юфатов,1989-05-04,,20-23,89.1,,,,,,165,-175,175,,175,,,,,,175,2
B,Multi-ply,90,M,Ruslan Fialkovskiy,Руслан Фиалковский,1990-08-14,,20-23,83.8,,,,,,80,140,-190,,140,,,,,,140,3
B,Multi-ply,90,M,Khagani Abdullaev,Хагани Абдуллаев,1982-08-18,,Open,88.15,,,,,,210,-220,225,,225,,,,,,225,2
B,Multi-ply,90,M,Denis Lenkov,Денис Леньков,1983-03-10,,Open,88.7,,,,,,210,220,225,,225,,,,,,225,3
B,Multi-ply,90,M,Rustam Pirov,Рустам Пиров,1986-01-06,,Open,88.55,,,,,,165,175,182.5,,182.5,,,,,,182.5,5
B,Multi-ply,90,M,Evgeniy Basov,Евгений Басов,1955-02-24,,50-59,89.5,,,,,,150,-160,-163,,150,,,,,,150,1
B,Multi-ply,100,M,Vasiliy Volobuev,Василий Волобуев,1991-05-01,,20-23,99.95,,,,,,220,232.5,237.5,,237.5,,,,,,237.5,2
B,Multi-ply,100,M,Mustafa Akhmedov,Мустафа Ахмедов,1980-10-15,,Open,97.7,,,,,,295,307.5,317.5,-325.5,317.5,,,,,,317.5,1
B,Multi-ply,100,M,Evgeniy Nechaev,Евгений Нечаев,1978-02-10,,Open,97.2,,,,,,315,-320,,,315,,,,,,315,2
B,Multi-ply,100,M,Sergey Konovalov,Сергей Коновалов,1987-05-23,,Open,93.7,,,,,,305,-315,-317.5,,305,,,,,,305,3
B,Multi-ply,100,M,Sergey Kakichev,Сергей Какичев,1980-12-11,,Open,100,,,,,,225,-240,240,,240,,,,,,240,4
B,Multi-ply,100,M,Aleksandr Prozorov,Александр Прозоров,1973-12-12,,Open,98.55,,,,,,235,-245,-250,,235,,,,,,235,5
B,Multi-ply,100,M,Vladimir Shchukin,Владимир Щукин,1980-03-15,,Open,95.45,,,,,,225,-242.5,-250,,225,,,,,,225,7
B,Multi-ply,100,M,Sergey Didovik,Сергей Дидовик,1978-01-20,,Open,100,,,,,,-300,,,,,,,,,,,DQ
B,Multi-ply,100,M,Mikhail Fedulov,Михаил Федулов,1969-11-27,,40-49,96.05,,,,,,150,160,-177.5,,160,,,,,,160,4
B,Multi-ply,100,M,Vyacheslav Tsyganok,Вячеслав Цыганок,1938-09-22,,70-79,99.05,,,,,,150,160,-170,,160,,,,,,160,1
B,Multi-ply,110,M,Dmitriy Pastukhov,Дмитрий Пастухов,1988-06-13,,20-23,109,,,,,,205,-240,-240,,205,,,,,,205,1
B,Multi-ply,110,M,Andrey Paley,Андрей Палей,1961-10-11,,Open,109.35,,,,,,-320,-320,320,,320,,,,,,320,1
B,Multi-ply,110,M,Denis Semenov,Денис Семенов,1974-04-27,,Open,108.7,,,,,,-270,,,,,,,,,,,DQ
B,Multi-ply,110,M,Eduard Khaliulin,Эдуард Халиулин,1973-05-22,,Open,103.55,,,,,,-290,-290,-290,,,,,,,,,DQ
B,Multi-ply,110,M,Andrey Paley,Андрей Палей,1961-10-11,,50-59,109.35,,,,,,-320,-320,320,,320,,,,,,320,1
B,Multi-ply,125,M,Viktor Naydenov,Виктор Найденов,1987-01-25,,Open,122.7,,,,,,375,390,405,,405,,,,,,405,1
B,Multi-ply,125,M,Sergey Yachmenev,Сергей Ячменев,1978-11-25,,Open,121.75,,,,,,260,-280,,,260,,,,,,260,3
B,Multi-ply,125,M,Dmitriy Bubnov,Дмитрий Бубнов,1973-10-14,,Open,110.8,,,,,,-250,-250,-250,,,,,,,,,DQ
B,Multi-ply,140,M,Vladimir Maksimov,Владимир Максимов,1966-06-17,,Open,133,,,,,,360,-380,-400,-420,360,,,,,,360,1
B,Multi-ply,140,M,Nikolay Pyshmintsev,Николай Пышминцев,,,Open,125.2,,,,,,320,-360,-360,,320,,,,,,320,2
B,Multi-ply,140,M,Vladimir Glotov,Владимир Глотов,1975-07-22,,Open,135.5,,,,,,-270,270,285,-300,285,,,,,,285,3
B,Multi-ply,140,M,Sergey Andriyashchenko,Сергей Андриященко,1977-08-18,,Open,130.65,,,,,,240,-267.5,267.5,,267.5,,,,,,267.5,4
B,Multi-ply,140,M,Vladimir Simonenko,Владимир Симоненко,1960-09-02,,50-59,132.05,,,,,,200,,,,200,,,,,,200,1
B,Multi-ply,140+,M,Aleksandr Podshibyakin,Александр Подшибякин,1964-09-06,,Open,163,,,,,,-280,-280,-280,,,,,,,,,DQ
B,Multi-ply,140+,M,Aleksandr Podshibyakin,Александр Подшибякин,1964-09-06,,40-49,163,,,,,,-280,-280,-280,,,,,,,,,DQ
SBD,Multi-ply,48,F,Agnessa Antipova,Агнесса Антипова,1988-03-09,,Open,47.6,160,172.5,-180,,172.5,100,105,-110,,105,130,140,-155,,140,417.5,1
SBD,Multi-ply,56,F,Tatyana Razumak,Татьяна Разумак,1989-12-24,,Open,55.6,180,190,200,,200,-85,85,-100,,85,150,-165,-165,,150,435,1
SBD,Multi-ply,60,F,Natalya Ayvazova,Наталья Айвазова,1989-11-15,,20-23,58.7,85,95,-105,,95,40,45,-47.5,,45,85,100,-110,,100,240,1
SBD,Multi-ply,60,F,Svetlana Dergaputskaya,Светлана Дергапутская,1978-10-31,,Open,58.8,155,165,175,,175,105,110,-115,,110,130,140,-145,,140,425,1
SBD,Multi-ply,67.5,F,Nina Mukhortova,Нина Мухортова,1966-09-16,,Open,65.7,120,130,-140,,130,95,100,110,,110,130,140,150,,150,390,2
SBD,Multi-ply,75,F,Yulia Medvedeva,Юлия Медведева,1979-07-08,,Open,73.5,250,-260,-270,,250,-165,165,-175,,165,210,-220,,,210,625,1
SBD,Multi-ply,56,M,Andrey Ivashuta,Андрей Ивашута,1993-11-11,,18-19,55,100,-110,110,,110,50,60,-75,,60,110,135,145,,145,315,1
SBD,Multi-ply,67.5,M,Denis Kachesov,Денис Качесов,1995-02-16,,16-17,63.05,-210,210,-230,,210,115,-125,-125,,115,195,-205,-205,,195,520,1
SBD,Multi-ply,67.5,M,Vladimir Ubeyvolk,Владимир Убейволк,1992-08-12,,18-19,63.7,200,220,227.5,,227.5,160,-170,-170,,160,200,215,-222.5,,215,602.5,1
SBD,Multi-ply,67.5,M,Vladimir Afonin,Владимир Афонин,1945-09-06,,60-69,67.5,-150,150,160,,160,105,-110,-115,,105,180,-190,190,,190,455,1
SBD,Multi-ply,75,M,Aleksandr Garbuzov,Александр Гарбузов,1992-12-18,,18-19,73.3,160,-170,-170,,160,110,-120,120,,120,190,200,-210,,200,480,1
SBD,Multi-ply,75,M,Zaur Guseynov,Заур Гусейнов,1986-11-21,,Open,75,275,-290,-305,,275,170,182.5,-195,,182.5,220,240,245,,245,702.5,1
SBD,Multi-ply,82.5,M,Vadim Vandakurov,Вадим Вандакуров,1992-10-14,,18-19,82.1,-335,335,-350,,335,-180,185,-192.5,,185,310,-322.5,-322.5,,310,830,1
SBD,Multi-ply,82.5,M,Gennadiy Vasyuchkov,Геннадий Васючков,1993-01-22,,18-19,81.4,290,310,,,310,135,145,-155,,145,230,250,-270,,250,705,2
SBD,Multi-ply,82.5,M,Artem Trusov,Артем Трусов,1993-03-19,,18-19,81.7,210,220,235,,235,-130,130,-145,,130,180,205,215,,215,580,3
SBD,Multi-ply,82.5,M,Shamal Murzabekov,Шамал Мурзабеков,1991-02-18,,20-23,81.75,180,200,220,,220,130,140,-150,,140,210,220,-240,,220,580,2
SBD,Multi-ply,82.5,M,Vadim Vandakurov,Вадим Вандакуров,1992-10-14,,Open,82.1,-335,335,-350,,335,-180,185,-192.5,,185,310,-322.5,-322.5,,310,830,1
SBD,Multi-ply,82.5,M,Vladimir Zhabin,Владимир Жабин,1980-06-27,,Open,82.4,310,-330,-330,,310,200,-212.5,-212.5,,200,280,300,-322.5,,300,810,2
SBD,Multi-ply,82.5,M,Andrey Darbinyan,Андрей Дарбинян,1977-03-03,,Open,81.1,-245,245,260,,260,150,160,-165,,160,250,260,-267.5,,260,680,4
SBD,Multi-ply,82.5,M,Konstantin Polyakov,Константин Поляков,1976-04-21,,Open,81.8,240,250,-260,,250,150,160,-165,,160,230,240,250,,250,660,5
SBD,Multi-ply,82.5,M,Vladimir Nagalyuk,Владимир Нагалюк,1951-09-21,,60-69,81.65,130,135,140,,140,70,75,,,75,170,-175,175,,175,390,1
SBD,Multi-ply,90,M,Andrey Trusov,Андрей Трусов,1993-03-19,,18-19,87.65,230,250,-270,,250,-160,160,-170,,160,220,-245,-245,,220,630,2
SBD,Multi-ply,90,M,Evgeniy Solovev,Евгений Соловьев,1988-09-20,,20-23,88.4,270,300,315,,315,170,185,-192.5,,185,240,250,255,,255,755,1
SBD,Multi-ply,90,M,Dmitriy Krutko,Дмитрий Крутько,1989-07-24,,20-23,86.55,280,302.5,315,,315,190,200,-205,,200,-230,230,-250,,230,745,3
SBD,Multi-ply,90,M,Grigoriy Matyash,Григорий Матяш,1961-01-27,,50-59,88.8,180,210,230,,230,-140,140,160,,160,190,210,-230,,210,600,1
SBD,Multi-ply,90,M,Kaplan Tlevtsezhev,Каплан Тлевцежев,1956-02-13,,50-59,85.1,205,210,215,,215,110,115,,,115,200,210,220,,220,550,2
SBD,Multi-ply,90,M,Valeriy Filipov,Валерий Филипов,1943-07-17,,60-69,86.2,170,190,,,190,70,,,,70,200,220,,,220,480,1
SBD,Multi-ply,100,M,Dmitriy Korotych,Дмитрий Коротыч,1988-06-08,,20-23,99.8,300,-320,320,,320,200,-215,-215,,200,-280,280,-300,,280,800,1
SBD,Multi-ply,100,M,Viktor Emelyanov,Виктор Емельянов,1991-06-09,,20-23,95,170,190,210,,210,120,130,137.5,,137.5,170,200,-210,,200,547.5,2
SBD,Multi-ply,100,M,Ivan Vasyunin,Иван Васюнин,1983-08-01,,Open,95.1,360,-370,-370,,360,-285,285,-300,,285,310,320,-327.5,,320,965,1
SBD,Multi-ply,100,M,Aleksandr Korotych,Александр Коротыч,1983-07-04,,Open,99,350,-370,370,,370,240,-260,-260,,240,-320,320,-357.5,,320,930,2
SBD,Multi-ply,100,M,Mikhail Mikao,Михаил Микао,1985-07-29,,Open,100,270,280,-290,,280,165,-170,170,,170,250,260,265,,265,715,4
SBD,Multi-ply,100,M,Aleksey Kozlov,Алексей Козлов,1970-05-19,,40-49,98.3,300,330,350,,350,100,,,,100,270,300,-322.5,,300,750,2
SBD,Multi-ply,100,M,Vladimir Kopchuk,Владимир Копчук,1957-03-23,,50-59,92.55,220,240,260,,260,145,-160,-160,,145,200,220,240,,240,645,1
SBD,Multi-ply,110,M,Aleksandr Zhukov,Александр Жуков,1993-03-23,,18-19,103.9,230,245,255,,255,170,185,-195,,185,220,240,-255,,240,680,1
SBD,Multi-ply,110,M,Anton Shurupov,Антон Шурупов,1991-06-27,,20-23,106.15,210,220,240,,240,140,-150,150,,150,200,210,230,,230,620,1
SBD,Multi-ply,110,M,Vüsal Mardanov,Вусал Марданов,1985-02-18,,Open,108.6,320,-340,340,,340,-300,300,,,300,350,365,-380,,365,1005,1
SBD,Multi-ply,110,M,Aleksandr Evsyutkin,Александр Евсюткин,1988-03-07,,Open,102.9,200,215,-230,,215,150,160,-165,,160,200,215,225,,225,600,3
SBD,Multi-ply,125,M,Maksim Pyatnitskiy,Максим Пятницкий,1986-08-31,,Open,110.2,270,290,305,,305,160,180,-185,,180,-270,270,290,,290,775,2
SBD,Multi-ply,140,M,Yevgen Yarymbash,Євген Яримбаш,1983-09-04,,Open,127.05,-470,-470,470,,470,-330,330,-362.5,,330,360,390,400,,400,1200,1
SBD,Multi-ply,140+,M,Igor Nastynov,Игорь Настынов,1961-03-14,,Open,148.4,300,350,400,,400,170,190,-205,,190,250,290,-325,,290,880,1
SBD,Multi-ply,140+,M,Igor Nastynov,Игорь Настынов,1961-03-14,,50-59,148.4,300,350,400,,400,170,190,-205,,190,250,290,-325,,290,880,1
B,Raw,52,F,Natalya Konovalova,Наталья Коновалова,1988-09-14,,Open,50.2,,,,,,100,-107.5,-107.5,,100,,,,,,100,1
B,Raw,56,F,Larisa Gvozdeva,Лариса Гвоздева,1965-06-25,,Open,56,,,,,,75,80,85,,85,,,,,,,DQ
B,Raw,56,F,Marina Krutko,Марина Крутько,1987-11-11,,Open,54.3,,,,,,65,67.5,-70,,67.5,,,,,,,DQ
B,Raw,56,F,Larisa Gvozdeva,Лариса Гвоздева,1965-06-25,,40-49,56,,,,,,75,80,85,,85,,,,,,,DQ
B,Raw,60,F,Ekaterina Usmanova,Екатерина Усманова,1989-10-01,,20-23,56.7,,,,,,55,-60,60,,60,,,,,,,DQ
B,Raw,60,F,Irina Fomenko,Ирина Фоменко,1985-05-28,,Open,58.05,,,,,,-50,-50,-50,,,,,,,,,DQ
B,Raw,67.5,F,Nina Mukhortova,Нина Мухортова,1966-09-16,,Open,65.7,,,,,,85,90,95,,95,,,,,,,DQ
B,Raw,75,F,Stanislava Amelchenko,Станислава Амельченко,1986-07-30,,Open,73.7,,,,,,52.5,-57.5,-57.5,,52.5,,,,,,,DQ
B,Raw,82.5,F,Alina Denisova,Алина Денисова,1988-07-28,,0-13,80.75,,,,,,35,-40,40,,40,,,,,,,DQ
B,Raw,82.5,F,Irina Nikulina,Ирина Никулина,1988-03-29,,Open,81.65,,,,,,-105,105,115,-125.5,115,,,,,,,DQ
B,Raw,48,M,Oleg Grudinin,Олег Грудинин,1986-06-10,,Open,36.7,,,,,,60,65,-67.5,,65,,,,,,,DQ
B,Raw,52,M,Igor Mitrofanov,Игорь Митрофанов,1998-04-14,,14-15,51.2,,,,,,20,25,-32.5,,25,,,,,,,DQ
B,Raw,56,M,Ivan Repnitsyn,Иван Репницын,1998-02-27,,14-15,54.4,,,,,,20,27.5,-32.5,,27.5,,,,,,,DQ
B,Raw,56,M,Ayub Taymiskhanov,Аюб Таймисханов,1992-10-12,,18-19,55.65,,,,,,90,105,-120,,105,,,,,,,DQ
B,Raw,60,M,Oleg Mironov,Олег Миронов,1970-10-28,,40-49,59,,,,,,130,135,-140,,135,,,,,,,DQ
B,Raw,67.5,M,Grigoriy Pantyukhin,Григорий Пантюхин,1995-07-22,,16-17,65.3,,,,,,82.5,90,95,,95,,,,,,,DQ
B,Raw,67.5,M,Daniil Shkarin,Даниил Шкарин,1995-09-01,,16-17,65.7,,,,,,82.5,87.5,-92.5,,87.5,,,,,,,DQ
B,Raw,67.5,M,Khamzat Kasumov,Хамзат Касумов,1984-10-15,,Open,66.8,,,,,,-155,165,172.5,,172.5,,,,,,,DQ
B,Raw,67.5,M,Rinat Nabiev,Ринат Набиев,1973-05-01,,Open,67.4,,,,,,145,150,-155,,150,,,,,,,DQ
B,Raw,67.5,M,Teymuraz Chikviladze,Теймураз Чиквиладзе,1987-07-01,,Open,67.45,,,,,,-90,100,-105,,100,,,,,,,DQ
B,Raw,75,M,Stanislav Kadnikov,Станислав Кадников,1995-02-08,,16-17,73.6,,,,,,90,97.5,102.5,,102.5,,,,,,,DQ
B,Raw,75,M,Aleksandr Krinitsyn,Александр Криницын,1993-08-08,,18-19,73.8,,,,,,140,-150,150,,150,,,,,,,DQ
B,Raw,75,M,Artur Lapshin,Артур Лапшин,1988-12-07,,20-23,73.75,,,,,,162.5,167.5,172.5,,172.5,,,,,,,DQ
B,Raw,75,M,Konstantin Fedorov,Константин Федоров,1990-12-07,,20-23,75,,,,,,130,135,-142.5,,135,,,,,,,DQ
B,Raw,75,M,Ayub Ozdiev,Аюб Оздиев,1983-05-27,,Open,74.95,,,,,,180,200,-215,,200,,,,,,,DQ
B,Raw,75,M,Artur Lapshin,Артур Лапшин,1988-12-07,,Open,73.75,,,,,,162.5,167.5,172.5,,172.5,,,,,,,DQ
B,Raw,75,M,Dmitriy Kukharenko,Дмитрий Кухаренко,1969-01-22,,Open,74.15,,,,,,160,167.5,-175,,167.5,,,,,,,DQ
B,Raw,75,M,Vladimir Belyaev,Владимир Беляев,1981-10-31,,Open,74.75,,,,,,152.5,160,-162.5,,160,,,,,,,DQ
B,Raw,75,M,Dmitriy Kukharenko,Дмитрий Кухаренко,1969-01-22,,40-49,74.15,,,,,,160,167.5,-175,,167.5,,,,,,,DQ
B,Raw,75,M,Leonid Dvorkin,Леонид Дворкин,1941-01-23,,70-79,75,,,,,,105,110.5,112.5,,112.5,,,,,,,DQ
B,Raw,82.5,M,Pavel Malinin,Павел Малинин,1998-09-01,,14-15,76,,,,,,30,37.5,-42.5,,37.5,,,,,,,DQ
B,Raw,82.5,M,Ilya Khodyrev,Илья Ходырев,1995-05-26,,16-17,78.65,,,,,,135,-142.5,142.5,,142.5,,,,,,,DQ
B,Raw,82.5,M,Vakhtang Shoniya,Вахтанг Шония,1994-12-07,,16-17,79.2,,,,,,-130,-137.5,-137.5,,,,,,,,,DQ
B,Raw,82.5,M,Roman Arkhireev,Роман Архиреев,1992-12-25,,18-19,77.1,,,,,,102.5,-110,112.5,,112.5,,,,,,,DQ
B,Raw,82.5,M,Grigoriy Fominykh,Григорий Фоминых,1993-08-28,,18-19,77.65,,,,,,102.5,110,-115,,110,,,,,,,DQ
B,Raw,82.5,M,Khozhbaudi Ozdiev,Хожбауди Оздиев,1989-09-22,,20-23,79.9,,,,,,177.5,190,-197.5,,190,,,,,,,DQ
B,Raw,82.5,M,Alan Ketoev,Алан Кетоев,1988-06-06,,20-23,82.05,,,,,,167.5,177.5,-182.5,,177.5,,,,,,,DQ
B,Raw,82.5,M,Yaroslav Dolgov,Ярослав Долгов,1990-05-18,,20-23,81.9,,,,,,125,-130,130,,130,,,,,,,DQ
B,Raw,82.5,M,Andrey Savelev,Андрей Савельев,1989-10-08,,20-23,77.55,,,,,,100,-110,-110,,100,,,,,,,DQ
B,Raw,82.5,M,Sergey Grishko,Сергей Гришко,1980-01-07,,Open,78.95,,,,,,210,215,-220,,215,,,,,,,DQ
B,Raw,82.5,M,Ismail Ozdiev,Исмаил Оздиев,1986-01-27,,Open,81.75,,,,,,177.5,190,-197.5,,190,,,,,,,DQ
B,Raw,82.5,M,Andrey Bogatkov,Андрей Богатков,1975-05-12,,Open,82.5,,,,,,-165,165,-170,,165,,,,,,,DQ
B,Raw,82.5,M,Dmitriy Savchenko,Дмитрий Савченко,1981-08-03,,Open,81,,,,,,130,140,145,,145,,,,,,,DQ
B,Raw,90,M,Idris Kuzaev,Идрис Кузаев,1989-07-21,,20-23,88.85,,,,,,210,225,230,,230,,,,,,,DQ
B,Raw,90,M,Svyatoslav Gaysin,Святослав Гайсин,1989-08-02,,20-23,88,,,,,,177.5,185,200,,200,,,,,,,DQ
B,Raw,90,M,Aleksandr Grevtsev,Александр Гревцев,1991-12-02,,20-23,88.5,,,,,,165,170,175,,175,,,,,,,DQ
B,Raw,90,M,Idris Kuzaev,Идрис Кузаев,1989-07-21,,Open,88.85,,,,,,210,225,230,,230,,,,,,,DQ
B,Raw,90,M,Eduard Galkov,Эдуард Гальков,1975-09-15,,Open,88.25,,,,,,195,205,-207.5,,205,,,,,,,DQ
B,Raw,90,M,Khagani Abdullaev,Хагани Абдуллаев,1982-08-18,,Open,88.15,,,,,,195,-205,-205,,195,,,,,,,DQ
B,Raw,90,M,Idris Mediev,Идрис Медиев,1986-02-20,,Open,87.95,,,,,,-185,190,-200,,190,,,,,,,DQ
B,Raw,90,M,Yuriy Rubanov,Юрий Рубанов,1967-11-28,,Open,89.9,,,,,,190,-201,-202.5,,190,,,,,,,DQ
B,Raw,90,M,Andrey Utkin,Андрей Уткин,1976-02-27,,Open,87.1,,,,,,-175,185,,,185,,,,,,,DQ
B,Raw,90,M,Vladimir Zhukov,Владимир Жуков,1985-02-01,,Open,87.5,,,,,,185,-195,-195,,185,,,,,,,DQ
B,Raw,90,M,Andrey Fokin,Андрей Фокин,1982-10-23,,Open,88.25,,,,,,175,-185,-187.5,,175,,,,,,,DQ
B,Raw,90,M,Sergey Khodunov,Сергей Ходунов,1968-10-23,,40-49,87,,,,,,195,200.5,205,210,205,,,,,,,DQ
B,Raw,90,M,Yuriy Rubanov,Юрий Рубанов,1967-11-28,,40-49,89.9,,,,,,190,-201,-202.5,,190,,,,,,,DQ
B,Raw,90,M,Aleksandr Fedorov,Александр Федоров,1968-06-12,,40-49,88.6,,,,,,140,150,-162.5,,150,,,,,,,DQ
B,Raw,90,M,Evgeniy Basov,Евгений Басов,1955-02-24,,50-59,89.9,,,,,,120,127.5,-135,,127.5,,,,,,,DQ
B,Raw,90,M,Fedor Chesnokov,Федор Чесноков,1947-02-16,,60-69,88.5,,,,,,120,130,140,,140,,,,,,,DQ
B,Raw,90,M,Vladimir Bolshov,Владимир Большов,1947-09-30,,60-69,89.6,,,,,,110,120,-125,,120,,,,,,,DQ
B,Raw,100,M,Dmitriy Korolev,Дмитрий Королев,1994-04-26,,18-19,100,,,,,,160,167.5,-172.5,,167.5,,,,,,,DQ
B,Raw,100,M,Andrey Zharenov,Андрей Жаренов,1988-06-27,,20-23,95,,,,,,200,-210,-210,,200,,,,,,,DQ
B,Raw,100,M,Andrey Yufatov,Андрей Юфатов,1989-05-04,,20-23,90.5,,,,,,135,145,-152.5,,145,,,,,,,DQ
B,Raw,100,M,Vadim Kakhuta,Вадим Кахута,1981-08-15,,Open,98.2,,,,,,250,-262.5,262.5,,262.5,,,,,,,DQ
B,Raw,100,M,Grigoriy Slipchenko,Григорий Слипченко,1982-11-16,,Open,98.45,,,,,,230,240,-247.5,,240,,,,,,,DQ
B,Raw,100,M,Aleksandr Prozorov,Александр Прозоров,1973-12-12,,Open,98.45,,,,,,-190,195,205,,205,,,,,,,DQ
B,Raw,100,M,Dmitriy Rudnev,Дмитрий Руднев,1970-03-10,,Open,95.8,,,,,,195,-202.5,202.5,,202.5,,,,,,,DQ
B,Raw,100,M,Aleksandr Shmygin,Александр Шмыгин,1983-11-17,,Open,99.65,,,,,,195,202.5,-207.5,,202.5,,,,,,,DQ
B,Raw,100,M,Andrey Zharenov,Андрей Жаренов,1988-06-27,,Open,95,,,,,,200,-210,-210,,200,,,,,,,DQ
B,Raw,100,M,Stanislav Lyzhin,Станислав Лыжин,1982-01-07,,Open,98.55,,,,,,190,195,-202.5,,195,,,,,,,DQ
B,Raw,100,M,Vladimir Shchukin,Владимир Щукин,1980-03-15,,Open,96.45,,,,,,182.5,190,-200,,190,,,,,,,DQ
B,Raw,100,M,Valentin Nechaev,Валентин Нечаев,1980-08-24,,Open,98.95,,,,,,170,-180,-180,,170,,,,,,,DQ
B,Raw,100,M,Sergey Romanov,Сергей Романов,1963-01-15,,40-49,93.1,,,,,,190,201,,,201,,,,,,,DQ
B,Raw,100,M,Boris Vinogradov,Борис Виноградов,1968-11-23,,40-49,98.15,,,,,,-175,175,-185,,175,,,,,,,DQ
B,Raw,100,M,Vladimir Petrov,Владимир Петров,1968-06-11,,40-49,98.2,,,,,,-175,-175,-175,,,,,,,,,DQ
B,Raw,100,M,Aslambek Abaev,Асламбек Абаев,1959-06-28,,50-59,96.7,,,,,,200,210,215,,215,,,,,,,DQ
B,Raw,100,M,Damir Kuzeev,Дамир Кузеев,1952-05-14,,60-69,99,,,,,,182.5,-192.5,-192.5,,182.5,,,,,,,DQ
B,Raw,100,M,Vyacheslav Tsyganok,Вячеслав Цыганок,1938-09-22,,70-79,99,,,,,,132.5,140,,,140,,,,,,,DQ
B,Raw,110,M,Aleksandr Kucherov,Александр Кучеров,1989-09-06,,20-23,100.9,,,,,,150,160,-167.5,,160,,,,,,,DQ
B,Raw,110,M,Igor Kushin,Игорь Кушин,1966-01-30,,Open,108.45,,,,,,235,245,250,,250,,,,,,,DQ
B,Raw,110,M,Artem Dolinyan,Артем Долинян,1978-08-19,,Open,109,,,,,,-227.5,227.5,-232.5,,227.5,,,,,,,DQ
B,Raw,110,M,Andrey Likhman,Андрей Лихман,1977-05-01,,Open,105.85,,,,,,210,215,222.5,,222.5,,,,,,,DQ
B,Raw,110,M,Sergey Ashikhmin,Сергей Ашихмин,1978-03-26,,Open,107.4,,,,,,-205,215,-220,,215,,,,,,,DQ
B,Raw,110,M,Viskhan Mukuev,Висхан Мукуев,1984-03-04,,Open,102.15,,,,,,-202.5,-202.5,202.5,,202.5,,,,,,,DQ
B,Raw,110,M,Vyacheslav Chelyshev,Вячеслав Челышев,1989-04-21,,Open,100.15,,,,,,-190,200,-211,,200,,,,,,,DQ
B,Raw,110,M,Ruben Odabashyan,Рубен Одабашян,1986-08-27,,Open,106,,,,,,-195,-195,-195,,,,,,,,,DQ
B,Raw,110,M,Igor Kushin,Игорь Кушин,1966-01-30,,40-49,108.45,,,,,,235,245,250,,250,,,,,,,DQ
B,Raw,110,M,Andrey Lukyanov,Андрей Лукьянов,1969-01-29,,40-49,106.5,,,,,,170,-180,-180,,170,,,,,,,DQ
B,Raw,125,M,Tamerlan Bashkhadzhiev,Тамерлан Башхаджиев,1978-10-26,,Open,120.25,,,,,,245,-260,-260,,245,,,,,,,DQ
B,Raw,125,M,Evgeniy Zheltenko,Евгений Желтенко,1982-04-21,,Open,125,,,,,,-265,-265,-265,,,,,,,,,DQ
B,Raw,125,M,Bakhtiyar Velibekov,Бахтияр Велибеков,1971-03-01,,40-49,116.4,,,,,,230,-245,-245,,230,,,,,,,DQ
B,Raw,125,M,Aleksandr Vasilchenko,Александр Васильченко,1966-03-19,,40-49,119.2,,,,,,180,-190,-190,,180,,,,,,,DQ
B,Raw,125,M,Andrey Korobitsin,Андрей Коробицин,1965-11-10,,40-49,113,,,,,,170,-185,-185,,170,,,,,,,DQ
B,Raw,140,M,Kirill Golberg,Кирилл Гольберг,1976-10-28,,Open,126.4,,,,,,245,-255,,,245,,,,,,,DQ
B,Raw,140,M,Vladimir Simonenko,Владимир Симоненко,1960-02-09,,50-59,134.55,,,,,,100,130,-160,,130,,,,,,,DQ
B,Raw,140+,M,Nikita Kuzmin,Никита Кузьмин,1988-08-29,,20-23,146.6,,,,,,200,215,222.5,,222.5,,,,,,,DQ
B,Raw,140+,M,Nikita Kuzmin,Никита Кузьмин,1988-08-29,,Open,146.6,,,,,,200,215,222.5,,222.5,,,,,,,DQ
SBD,Wraps,44,F,Lilya Eminova,Лиля Эминова,1992-03-06,,20-23,43.15,40,45,50,,50,25,27.5,30,,30,70,75,80,,80,160,1
SBD,Wraps,52,F,Tatyana Dzhanpoladova,Татьяна Джанполадова,1984-09-15,,Open,52,80,90,-100,,90,55,60,-65,,60,90,100,-110,,100,250,1
SBD,Wraps,56,F,Larisa Gvozdeva,Лариса Гвоздева,1965-06-25,,Open,55.7,120,132.5,137.5,,137.5,75,80,85,,85,130,140,150,,150,372.5,1
SBD,Wraps,56,F,Larisa Gvozdeva,Лариса Гвоздева,1965-06-25,,40-49,55.7,120,132.5,137.5,,137.5,75,80,85,,85,130,140,150,,150,372.5,1
SBD,Wraps,67.5,F,Valeriya Bukina,Валерия Букина,1990-05-07,,Open,66.55,90,100,110,,110,80,90,95,,95,140,160,-170,,160,365,1
SBD,Wraps,82.5,F,Tatyana Merezhko,Татьяна Мережко,1978-07-05,,Open,82.2,195,205,-213,,205,95,101,-102.5,,101,200,213,-219,,213,519,1
SBD,Wraps,60,M,Aleksandr Dambinov,Александр Дамбинов,1936-03-12,,70-79,59.95,75,-80,85,,85,55,-62.5,-65,,55,145,150,155,,155,295,1
SBD,Wraps,67.5,M,Mikhail Semenikhin,Михаил Семенихин,1995-08-20,,16-17,65.75,130,145,155,,155,90,97.5,-102.5,,97.5,100,120,,,120,372.5,1
SBD,Wraps,67.5,M,Batraz Gagiev,Батраз Гагиев,1993-11-30,,18-19,66.9,140,150,160,,160,100,120,130,,130,160,180,190,,190,480,1
SBD,Wraps,67.5,M,Aleksey Shirobokov,Алексей Широбоков,1991-05-23,,20-23,67,130,140,150,,150,100,110,117.5,,117.5,160,180,200,,200,467.5,1
SBD,Wraps,67.5,M,Vyacheslav Kotoliev,Вячеслав Котолиев,1989-06-23,,Open,66.5,210,225,-230,,225,110,-120,-120,,110,240,255,260,,260,595,1
SBD,Wraps,75,M,Yan Zabrotskiy,Ян Заброцкий,1992-11-07,,18-19,75,150,160,165,,165,115,120,125,,125,180,190,195,,195,485,1
SBD,Wraps,75,M,David Sarkisyan,Давид Саркисян,1990-05-21,,20-23,72.3,155,165,175,,175,105,110,-117.5,,110,-185,185,195,,195,480,1
SBD,Wraps,75,M,Arkadiy Shalokha,Аркадий Шалоха,1983-02-28,,Open,75,250,260,,,260,175,182.5,-187.5,,182.5,290,-300,-300,,290,732.5,1
SBD,Wraps,75,M,Igor Kondrashov,Игорь Кондрашов,1986-07-01,,Open,74.5,220,-230,230,,230,135,140,-145,,140,-265,270,280,,280,650,2
SBD,Wraps,75,M,Rafael Buklov,Рафаэль Буклов,1985-07-18,,Open,74.6,190,-200,-200,,190,130,-135,135,,135,200,220,-235,,220,545,3
SBD,Wraps,82.5,M,Gennadiy Vasyuchkov,Геннадий Васючков,1993-01-22,,18-19,82,210,230,-240,,230,130,-140,140,,140,250,265,-275,,265,635,1
SBD,Wraps,82.5,M,Mukhamed Shovkhalov,Мухамед Шовхалов,1990-07-04,,20-23,80.05,170,190,200,,200,130,140,-145,,140,190,210,-225,,210,550,1
SBD,Wraps,82.5,M,Vladislav Lukanin,Владислав Луканин,1984-10-28,,Open,80.5,270,285,290,,290,140,142.5,,,142.5,-255,255,,,255,687.5,1
SBD,Wraps,82.5,M,Konstantin Chernov,Константин Чернов,1984-11-24,,Open,82.3,220,235,245,,245,170,-180,-180,,170,250,270,-275,,270,685,2
SBD,Wraps,82.5,M,Petr Orobets,Петр Оробец,1962-01-02,,Open,82.45,195,215,225,,225,125,140,145,,145,240,260,267.5,283,267.5,637.5,3
SBD,Wraps,82.5,M,Idris Chadaev,Идрис Чадаев,1977-08-24,,Open,78.95,190,210,220,,220,145,155,160,,160,210,230,-250,,230,610,4
SBD,Wraps,82.5,M,Aleksandr Koshelev #1,Александр Кошелев,1987-06-01,,Open,77.5,190,202.5,210,,210,120,130,135,,135,220,235,245,,245,590,5
SBD,Wraps,82.5,M,Petr Orobets,Петр Оробец,1962-01-02,,50-59,82.45,195,215,225,,225,125,140,145,,145,240,260,267.5,283,267.5,637.5,1
SBD,Wraps,90,M,Andrey Bayzhanov,Андрей Байжанов,1993-03-03,,18-19,89.45,190,-200,200,,200,135,140,-145,,140,230,245,255,,255,595,1
SBD,Wraps,90,M,Aleksey Sova,Алексей Сова,1991-09-22,,20-23,89.05,170,200,-212.5,,200,120,132.5,135,,135,210,225,-240,,225,560,1
SBD,Wraps,90,M,Anton Galaguz,Антон Галагуз,1986-11-24,,Open,89.75,255,265,-275,,265,175,185,-192.5,,185,270,280,290,,290,740,1
SBD,Wraps,90,M,Gyunduz Mammedov,Гюндуз Маммедов,1983-03-08,,Open,89.7,270,-282.5,282.5,,282.5,170,182.5,-187.5,,182.5,242.5,257.5,265,,265,730,2
SBD,Wraps,90,M,Akhmed Eldarov Khozh,Ахмед Эльдаров Хож,1983-04-26,,Open,89.6,-270,270,-277.5,,270,-140,140,-145,,140,305,,,,305,715,3
SBD,Wraps,90,M,Nikolay Omelchenko,Николай Омельченко,1987-09-10,,Open,89.8,220,230,240,,240,140,145,150,,150,250,270,-280,,270,660,4
SBD,Wraps,90,M,Denis Gornostaev,Денис Горностаев,1978-04-09,,Open,86.2,220,235,-245,,235,160,170,175,,175,245,-260,,,245,655,5
SBD,Wraps,100,M,Mikhail Kornyushenko,Михаил Корнюшенко,1992-10-07,,18-19,94.55,-180,180,-200,,180,130,140,-150,,140,210,220,-230,,220,540,1
SBD,Wraps,100,M,Anton Obodovskiy,Антон Ободовський,1984-07-20,,Open,99.5,300,320,330,,330,210,220,225,,225,320,335,-345,,335,890,1
SBD,Wraps,100,M,Sergey Zaytsev,Сергей Зайцев,1977-10-13,,Open,99.5,250,-260,270,,270,210,220,230,,230,270,280,300,,300,800,2
SBD,Wraps,100,M,Akim Vakhtin,Аким Вахтин,1983-10-06,,Open,99.8,270,-282.5,282.5,,282.5,170,177.5,-185,,177.5,310,-322.5,,,310,770,3
SBD,Wraps,100,M,Vladislav Siyanovich,Владислав Сиянович,1972-04-20,,40-49,99.35,220,230,-240,,230,160,170,175,,175,230,240,250,,250,655,1
SBD,Wraps,100,M,Aslambek Abaev,Асламбек Абаев,1959-06-28,,50-59,96.6,255,270,280,,280,205,212.5,215,,215,255,265,275,,275,770,1
SBD,Wraps,110,M,Aleksandr Danshin,Александр Даньшин,1991-09-11,,20-23,108.5,240,250,257.5,,257.5,165,172.5,175,,175,250,267.5,-272.5,,267.5,700,1
SBD,Wraps,110,M,Stanislav Shvetsov,Станислав Швецов,1988-02-08,,Open,110,300,315,330,,330,230,-240,-240,,230,320,-347.5,,,320,880,1
SBD,Wraps,110,M,Vyusal Mardanov,Вюсал Марданов,1985-02-18,,Open,109.5,260,275,-285,,275,200,207.5,-212.5,,207.5,330,-352.5,,,330,812.5,2
SBD,Wraps,110,M,Timur-Bulat Magomadov,Тимур-Булат Магомадов,1976-11-22,,Open,105.95,300,-310,-310,,300,190,-195,-195,,190,270,280,,,280,770,4
SBD,Wraps,110,M,Yuriy Dementev,Юрий Дементьев,1983-05-26,,Open,105.8,240,250,-260,,250,180,190,-195,,190,280,290,300,,300,740,6
SBD,Wraps,110,M,Pavel Shibaev,Павел Шибаев,1975-07-22,,Open,103.5,210,225,235,,235,155,165,175,,175,215,225,240,,240,650,8
SBD,Wraps,125,M,Azret Kharaev,Азрет Хараев,1991-01-22,,20-23,117.15,260,280,292.5,,292.5,170,185,197.5,,197.5,270,290,310,,310,800,1
SBD,Wraps,125,M,Egor Kirpa,Егор Кирпа,1991-08-17,,20-23,117,220,232.5,240,,240,130,,,,130,270,287.5,-300,,287.5,657.5,2
SBD,Wraps,125,M,Aleksandr Zaytsev,Александр Зайцев,1980-04-06,,Open,123.5,300,320,340,,340,210,230,-240,,230,300,-320,320,,320,890,1
SBD,Wraps,125,M,Stanislav Mordvinov,Станислав Мордвинов,1983-11-04,,Open,122.7,300,-320,320,,320,210,217.5,220,,220,300,320,-330,,320,860,2
SBD,Wraps,125,M,Maksim Pyatnitskiy,Максим Пятницкий,1984-08-31,,Open,110.4,230,245,260,,260,175,185,-190,,185,260,275,-285,,275,720,5
SBD,Wraps,140,M,Shakhin Eyvazov,Шахин Эйвазов,1982-02-03,,Open,125.35,250,,,,250,170,190,200,,200,250,280,310,,310,760,1
SBD,Wraps,140,M,Fuad Farzaliev,Фуад Фарзалиев,1979-12-14,,Open,128.65,210,-225,230,,230,150,160,170,,170,250,-270,-270,,250,650,2
