Place,Name,BirthYear,Sex,BodyweightKg,Squat1Kg,Squat2Kg,Squat3Kg,Best3SquatKg,Bench1Kg,Bench2Kg,Bench3Kg,Best3BenchKg,Deadlift1Kg,Deadlift2Kg,Deadlift3Kg,Best3DeadliftKg,TotalKg,Equipment,WeightClassKg,Event,Division
1,Hollie Kempton,1989,F,46.45,80,87.5,90,90,42.5,47.5,50,50,115,125,135,135,275,Raw,47,SBD,Open
1,Crissy Ciraudo,1961,F,56.5,87.5,95,100,100,52.5,-57.5,57.5,57.5,115,-125,135,135,292.5,Raw,57,SBD,Open
2,Kisane De Jonge,1966,F,54.15,80,90,-95,90,45,-50,50,50,100,110,-117.5,110,250,Raw,57,SBD,Open
1,Lenka Suchankova,1988,F,63.75,90,95,100,100,50,55,57.5,57.5,115,120,-125,120,277.5,Raw,72,SBD,Open
1,Brea De Jonge,2001,F,103.4,-165,165,180,180,85,90,95,95,155,167.5,-175,167.5,442.5,Raw,84+,SBD,Open
1,David Johnston,1989,M,104.25,200,212.5,220,220,125,132.5,140,140,215,230,240,240,600,Raw,105,SBD,Open
1,Kelly Cartwright,1989,F,46.45,,,,,52.5,57.5,60,60,,,,,60,Raw,47,B,Open
