Division,WeightClassKg,Place,Name,Team,BodyweightKg,Best3SquatKg,Best3BenchKg,Best3DeadliftKg,TotalKg,Equipment,Event,Sex
Boys,52,1,Brandon Martinez,Cotulla,50.89,102.06,43.09,90.72,235.87,Single-ply,SBD,M
Boys,56,1,Tyrese Perkins,Cotulla,51.89,129.27,79.38,154.22,362.87,Single-ply,SBD,M
Boys,60,1,Scott Ramirez,Cotulla,59.6,149.69,97.52,151.95,399.16,Single-ply,SBD,M
Boys,60,2,Gabriel Menchaca,Pearsall,58.79,111.13,61.23,108.86,281.23,Single-ply,SBD,M
Boys,67.5,1,Juan Rojas,La Pryor,60.42,204.12,122.47,183.7,510.29,Single-ply,SBD,M
Boys,67.5,2,Juid Colchado,Cotulla,65.77,165.56,104.33,161.03,430.91,Single-ply,SBD,M
Boys,67.5,3,Elijah Cubriel,Pearsall,61.51,102.06,65.77,113.4,281.23,Single-ply,SBD,M
Boys,67.5,4,Cason Taylor,Cotulla,66.95,170.1,90.72,,260.82,Single-ply,SB,M
Boys,75,1,John Reyes,Pearsall,72.76,201.85,120.2,254.01,576.06,Single-ply,SBD,M
Boys,75,2,Eric Gonzalez,Carrizo Springs,74.84,201.85,106.59,208.65,517.1,Single-ply,SBD,M
Boys,75,3,Frank Mendez,Carrizo Springs,74.12,190.51,102.06,192.78,485.34,Single-ply,SBD,M
Boys,75,4,Giovanni Narvaiz,Cotulla,74.66,199.58,95.25,170.1,464.93,Single-ply,SBD,M
Boys,75,5,Alex Gandara,Pearsall,72.12,181.44,90.72,190.51,462.66,Single-ply,SBD,M
Boys,75,6,Roland Vasquez,Pearsall,73.12,174.63,83.91,183.7,442.25,Single-ply,SBD,M
Boys,75,7,Angel Jaso,Brackettville Brackett,71.94,170.1,97.52,170.1,437.72,Single-ply,SBD,M
Boys,75,8,Marcos Cruz,Carrizo Springs,72.39,174.63,86.18,170.1,430.91,Single-ply,SBD,M
Boys,75,9,Blake Bently,Pearsall,73.94,142.88,79.38,147.42,369.68,Single-ply,SBD,M
Boys,75,10,Gabriel Martinez,Pearsall,67.95,133.81,65.77,120.2,319.78,Single-ply,SBD,M
Boys,75,DQ,Aaron Rodriguez,Brackettville Brackett,70.03,124.74,,140.61,,Single-ply,SBD,M
Boys,82.5,1,Angel Martinez,Cotulla,81.65,185.97,129.27,188.24,503.49,Single-ply,SBD,M
Boys,82.5,2,Ricardo Aguilar,Pearsall,79.38,147.42,77.11,154.22,378.75,Single-ply,SBD,M
Boys,82.5,3,Juan Garcia,La Pryor,76.2,108.86,68.04,140.61,317.51,Single-ply,SBD,M
Boys,82.5,DQ,Tanner Lindhorst,Brackettville Brackett,,,,,,Single-ply,SBD,M
Boys,82.5,DQ,Austin Britton,Brackettville Brackett,,,,,,Single-ply,SBD,M
Boys,90,1,Mario Mendoza,Carrizo Springs,89.36,258.55,183.7,222.26,664.51,Single-ply,SBD,M
Boys,90,2,Alex Garza,Cotulla,89.54,235.87,129.27,206.38,571.53,Single-ply,SBD,M
Boys,90,3,Elian Consuegra,Cotulla,88.99,183.7,138.35,181.44,503.49,Single-ply,SBD,M
Boys,90,4,David Castro,Carrizo Springs,88.72,188.24,131.54,172.37,492.15,Single-ply,SBD,M
Boys,90,5,Jorge Rojas,La Pryor,83.64,163.29,124.74,176.9,464.93,Single-ply,SBD,M
Boys,90,DQ,Anthony Maldonado,La Pryor,,,,,,Single-ply,SBD,M
Boys,100,1,Andrew Stillwell,Cotulla,96.43,208.65,131.54,172.37,512.56,Single-ply,SBD,M
Boys,100,2,Moses Gonzales,Pearsall,94.44,165.56,106.59,192.78,464.93,Single-ply,SBD,M
Boys,110,1,David Arvizo,La Pryor,104.33,231.33,117.93,190.51,539.77,Single-ply,SBD,M
Boys,110,2,Baldomero Ortega,Cotulla,107.59,183.7,117.93,217.72,519.36,Single-ply,SBD,M
Boys,110,3,Jeffrey De Leon,Carrizo Springs,102.33,188.24,113.4,204.12,505.76,Single-ply,SBD,M
Boys,110,DQ,Lupe Tellez,La Pryor,,,,,,Single-ply,SBD,M
Boys,125,1,Gerardo Garza,Cotulla,122.38,229.06,117.93,244.94,591.94,Single-ply,SBD,M
Boys,125,2,Brandon Orosco,Carrizo Springs,119.66,229.06,124.74,197.31,551.11,Single-ply,SBD,M
Boys,125+,1,Nathan Pearson,Brackettville Brackett,135.35,238.14,111.13,226.8,576.06,Single-ply,SBD,M
